Division,WeightClassKg,Place,Name,Team,BodyweightKg,Best3SquatKg,Best3BenchKg,Best3DeadliftKg,TotalKg,Equipment,Event,Sex
Boys,51.71,1,Tyler Ratanamonghala,Madisonville,48.9,111.13,58.97,127.01,297.1,Single-ply,SBD,M
Boys,51.71,2,Michael Smagghe,Fairfield,49.8,104.33,70.31,122.47,297.1,Single-ply,SBD,M
Boys,51.71,3,Layton Noey,Normangee,49.99,90.72,49.9,102.06,242.67,Single-ply,SBD,M
Boys,51.71,DQ,Cody Betser,Fairfield,49.99,117.93,,,,Single-ply,SBD,M
Boys,55.79,1,Jalleen Pickett,Madisonville,55.43,136.08,68.04,142.88,347,Single-ply,SBD,M
Boys,55.79,2,Tyrek Landry,Fairfield,52.98,124.74,54.43,122.47,301.64,Single-ply,SBD,M
Boys,55.79,DQ,Peyton Shirey,Scurry-Rosser,55.79,,,,,Single-ply,SBD,M
Boys,59.87,1,Ismael Castillo,Madisonville,59.69,158.76,92.99,149.69,401.43,Single-ply,SBD,M
Boys,59.87,2,Dalton Clark,Normangee,59.24,142.88,77.11,158.76,378.75,Single-ply,SBD,M
Boys,59.87,3,Nick Harris,Madisonville,59.6,136.08,81.65,158.76,376.48,Single-ply,SBD,M
Boys,67.13,4,Cameron Yates,Scurry-Rosser,59.96,142.88,77.11,140.61,360.61,Single-ply,SBD,M
Boys,59.87,5,Jacob McLean,Scurry-Rosser,59.87,138.35,68.04,142.88,349.27,Single-ply,SBD,M
Boys,59.87,6,Jt Jones,Teague,59.51,129.27,65.77,140.61,335.66,Single-ply,SBD,M
Boys,67.13,7,Mason Alexander,Scurry-Rosser,60.06,129.27,72.57,133.81,335.66,Single-ply,SBD,M
Boys,67.13,8,Stone Bankston,Scurry-Rosser,60.06,90.72,49.9,120.2,260.82,Single-ply,SBD,M
Boys,67.13,1,Jared Arey,Teague,65.32,190.51,99.79,183.7,474,Single-ply,SBD,M
Boys,67.13,2,Bryce Wilkerson,Tyler Lee,62.78,183.7,92.99,183.7,460.4,Single-ply,SBD,M
Boys,67.13,3,Devin Eggins,Fairfield,63.87,174.63,83.91,163.29,421.84,Single-ply,SBD,M
Boys,67.13,4,Patrick Crowder,Tyler Lee,65.5,145.15,74.84,165.56,385.55,Single-ply,SBD,M
Boys,74.84,5,Jonathan Childers,Fairfield,67.22,154.22,90.72,136.08,381.02,Single-ply,SBD,M
Boys,74.84,6,William Higgins,Fairfield,67.31,129.27,72.57,136.08,337.93,Single-ply,SBD,M
Boys,67.13,7,Tayton Noyes,Fairfield,66.32,124.74,81.65,124.74,331.12,Single-ply,SBD,M
Boys,74.84,1,Coy Jorden,Teague,73.66,204.12,117.93,206.38,528.44,Single-ply,SBD,M
Boys,74.84,2,Diondre Allen,Tyler Lee,69.76,181.44,104.33,188.24,474,Single-ply,SBD,M
Boys,82.1,3,Jeremiah Simpson,Fairfield,75.02,183.7,99.79,183.7,467.2,Single-ply,SBD,M
Boys,74.84,4,Desmond Dunn,Tyler Lee,74.57,176.9,97.52,181.44,455.86,Single-ply,SBD,M
Boys,82.1,5,Aaron Ratliff,Normangee,75.02,163.29,79.38,158.76,401.43,Single-ply,SBD,M
Boys,74.84,6,Jason Smith,Teague,71.76,154.22,74.84,158.76,387.82,Single-ply,SBD,M
Boys,74.84,7,David Trevino,Madisonville,73.84,113.4,92.99,158.76,365.14,Single-ply,SBD,M
Boys,74.84,8,Jesse Landess,Scurry-Rosser,73.48,140.61,86.18,136.08,362.87,Single-ply,SBD,M
Boys,74.84,DQ,Austin Archer,Scurry-Rosser,74.21,117.93,,129.27,,Single-ply,SBD,M
Boys,82.1,1,Barney Harris,Tyler Lee,81.83,172.37,104.33,204.12,480.81,Single-ply,SBD,M
Boys,82.1,2,Patrick Udofia,Tyler Lee,77.75,179.17,102.06,181.44,462.66,Single-ply,SBD,M
Boys,82.1,3,Roddrick Gaines,Tyler Lee,76.84,165.56,90.72,181.44,437.72,Single-ply,SBD,M
Boys,82.1,4,Darryl White,Corsicana,80.2,142.88,99.79,181.44,424.11,Single-ply,SBD,M
Boys,89.81,5,Ryan Mutina,Corsicana,82.28,170.1,97.52,151.95,419.57,Single-ply,SBD,M
Boys,82.1,DQ,Tj Graham,Scurry-Rosser,78.65,158.76,,165.56,,Single-ply,SBD,M
Boys,89.81,1,Jayson Day,Scurry-Rosser,88.54,195.04,115.67,176.9,487.61,Single-ply,SBD,M
Boys,89.81,2,Darius Watson,Corsicana,86.27,192.78,92.99,192.78,478.54,Single-ply,SBD,M
Boys,89.81,3,Danny Cockerell,Fairfield,85.46,197.31,102.06,165.56,464.93,Single-ply,SBD,M
Boys,89.81,4,Cole Beddingfield,Fairfield,86.27,181.44,97.52,140.61,419.57,Single-ply,SBD,M
Boys,99.79,5,Jeremy Wood,Fairfield,89.99,154.22,86.18,142.88,383.29,Single-ply,SBD,M
Boys,89.81,6,Rodrigo Morales,Teague,84.28,124.74,77.11,149.69,351.53,Single-ply,SBD,M
Boys,89.81,DQ,Jimmy Landess,Scurry-Rosser,89.81,,,,,Single-ply,SBD,M
Boys,89.81,DQ,Austin Nichols,Normangee,89.81,,,,,Single-ply,SBD,M
Boys,99.79,1,Etheridge Brooks,Madisonville,99.06,229.06,151.95,222.26,603.28,Single-ply,SBD,M
Boys,99.79,2,Brandon Morris,Scurry-Rosser,93.71,219.99,127.01,219.99,566.99,Single-ply,SBD,M
Boys,109.77,3,Julio Camarena,Madisonville,99.88,204.12,120.2,199.58,523.9,Single-ply,SBD,M
Boys,99.79,4,Gary Dyer,Teague,98.43,192.78,95.25,206.38,494.42,Single-ply,SBD,M
Boys,99.79,5,David Bastardo,Madisonville,93.26,181.44,102.06,192.78,476.27,Single-ply,SBD,M
Boys,99.79,6,Donavon Hailey,Corsicana,99.61,172.37,106.59,183.7,462.66,Single-ply,SBD,M
Boys,99.79,7,Andrew Grant,Fairfield,94.44,158.76,111.13,158.76,428.64,Single-ply,SBD,M
Boys,99.79,8,Carmelo Calixtro,Teague,90.26,154.22,72.57,154.22,381.02,Single-ply,SBD,M
Boys,109.77,1,Kelton Henderson,Teague,107.86,317.51,174.63,238.14,730.28,Single-ply,SBD,M
Boys,109.77,2,William Hults,Tyler Lee,107.32,233.6,120.2,231.33,585.13,Single-ply,SBD,M
Boys,109.77,3,Jorge Rosas,Madisonville,107.5,226.8,131.54,226.8,585.13,Single-ply,SBD,M
Boys,109.77,4,Etim Asangansi,Tyler Lee,102.6,226.8,129.27,217.72,573.79,Single-ply,SBD,M
Boys,109.77,5,Mario Villareal,Fairfield,102.6,226.8,108.86,197.31,532.97,Single-ply,SBD,M
Boys,109.77,6,Dalton Gilbert,Madisonville,103.78,176.9,113.4,195.04,485.34,Single-ply,SBD,M
Boys,109.77,7,Leal Sample,Scurry-Rosser,102.33,185.97,106.59,183.7,476.27,Single-ply,SBD,M
Boys,109.77,8,Lane Cryer,Scurry-Rosser,102.97,170.1,102.06,170.1,442.25,Single-ply,SBD,M
Boys,109.77,9,Adrian Casas,Fairfield,103.6,174.63,95.25,149.69,419.57,Single-ply,SBD,M
Boys,124.74,1,Jose Diaz,Teague,115.76,274.42,136.08,244.94,655.44,Single-ply,SBD,M
Boys,124.74,2,Ryan Mitchell,Teague,112.4,226.8,136.08,206.38,569.26,Single-ply,SBD,M
Boys,124.74,3,Triston Taylor,Tyler Lee,116.12,215.46,113.4,201.85,530.7,Single-ply,SBD,M
Boys,124.74,4,Brandon Kendrick,Madisonville,111.4,176.9,106.59,192.78,476.27,Single-ply,SBD,M
Boys,124.74,5,Luke Linebaugh,Corsicana,119.84,181.44,90.72,185.97,458.13,Single-ply,SBD,M
Boys,124.74,6,Jonathan Estrada,Corsicana,110.59,156.49,90.72,151.95,399.16,Single-ply,SBD,M
Boys,124.74,7,Julio Campuzano,Corsicana,110.86,138.35,97.52,142.88,378.75,Single-ply,SBD,M
Boys,124.74,8,Jonathan Seaton,Corsicana,112.13,117.93,79.38,158.76,356.07,Single-ply,SBD,M
Boys,124.74,DQ,Alex Valencia,Corsicana,114.67,188.24,,158.76,,Single-ply,SBD,M
Boys,124.74+,1,Alex Ellis,Teague,125.65,274.42,127.01,240.4,641.83,Single-ply,SBD,M
Boys,124.74+,2,Daniel Ruiz,Corsicana,155.95,226.8,147.42,231.33,605.55,Single-ply,SBD,M
Boys,124.74+,3,Chris Jones #17,Corsicana,132.9,195.04,129.27,204.12,528.44,Single-ply,SBD,M
Boys,124.74+,4,Sam Robinson,Fairfield,131.63,210.92,115.67,181.44,508.02,Single-ply,SBD,M
Boys,124.74+,5,Justin Willoughby,Tyler Lee,125.74,185.97,90.72,176.9,453.59,Single-ply,SBD,M
Boys,124.74+,6,Kolton Gatson,Fairfield,137.53,188.24,108.86,142.88,439.98,Single-ply,SBD,M
Boys,124.74+,7,Nick Horn,Corsicana,131.54,181.44,90.72,158.76,430.91,Single-ply,SBD,M
