Place,Sex,Name,CyrillicName,BodyweightKg,Deadlift1Kg,Deadlift2Kg,Deadlift3Kg,Best3DeadliftKg,Deadlift4Kg,TotalKg,WeightClassKg,Event,Equipment,Tested,Bench1Kg,Bench2Kg,Bench3Kg,Best3BenchKg,Bench4Kg,Squat1Kg,Squat2Kg,Squat3Kg,Best3SquatKg,Squat4Kg,Division,Age,BirthDate
1,M,Mikhail Antsiferov,Михаил Анциферов,107.7,215,225,,225,,225,110,D,Multi-ply,Yes,,,,,,,,,,,Open,34,1981-07-02
1,F,Anna Sverchkova,Анна Сверчкова,74.7,145,-155,,145,,145,75,D,Multi-ply,No,,,,,,,,,,,Open,24,1991-04-22
1,M,Nikolay Prokaev,Николай Прокаев,64.9,140,165,175,175,,175,67.5,D,Multi-ply,No,,,,,,,,,,,Open,28,1987-06-17
1,M,Aleksey Sheykin,Алексей Шейкин,89.6,275,,,275,,275,90,D,Multi-ply,No,,,,,,,,,,,Open,27,1988-03-24
1,M,Aleksandr Yukhanov,Александр Юханов,107.7,267.5,290,310,310,,310,110,D,Multi-ply,No,,,,,,,,,,,Open,29,1985-12-14
1,F,Galina Netrebina,Галина Нетребина,55.1,105,-115,-115,105,,105,56,D,Raw,Yes,,,,,,,,,,,Open,37,1978-07-07
DQ,F,Anna Bukhova,Анна Бухова,64.5,-110,-110,,,,,67.5,D,Raw,Yes,,,,,,,,,,,Teen 18-19,19,1995-11-14
1,F,Natalya Trapeznikova,Наталья Трапезникова,67.2,110,120,125,125,,125,67.5,D,Raw,Yes,,,,,,,,,,,Open,29,1986-01-12
1,F,Oksana Fomenko,Оксана Фоменко,71.3,145,-157.5,-162.5,145,,145,75,D,Raw,Yes,,,,,,,,,,,Open,27,1988-07-28
1,M,Sergey Sidorovskiy,Сергей Сидоровский,74.2,175,185,195,195,,195,75,D,Raw,Yes,,,,,,,,,,,Masters 40-44,44,1971-05-12
1,M,Aleksey Glagolev,Алексей Глаголев,79.1,220,,,220,,220,82.5,D,Raw,Yes,,,,,,,,,,,Teen 18-19,18,1997-10-27
1,M,Andrey Karmishin,Андрей Кармишин,81.8,140,160,-175,160,,160,82.5,D,Raw,Yes,,,,,,,,,,,Open,31,1984-03-13
1,M,Andrey Kozlov,Андрей Козлов,88.9,190,205,-215,205,,205,90,D,Raw,Yes,,,,,,,,,,,Juniors 20-23,23,1992-06-13
1,M,Aleksey Sheykin,Алексей Шейкин,89.6,275,,,275,,275,90,D,Raw,Yes,,,,,,,,,,,Open,27,1988-03-24
2,M,Islam Balkizov,Ислам Балкизов,85.2,210,225,235,235,,235,90,D,Raw,Yes,,,,,,,,,,,Open,30,1985-06-14
3,M,Nikolay Luppov,Николай Луппов,87.9,-207.5,207.5,215,215,,215,90,D,Raw,Yes,,,,,,,,,,,Open,36,1979-03-19
1,M,Aleksey Smirnov,Алексей Смирнов,95.1,250,,,250,,250,100,D,Raw,Yes,,,,,,,,,,,Open,38,1977-09-20
2,M,Pavel Bychkov,Павел Бычков,98.9,250,-255,-255,250,,250,100,D,Raw,Yes,,,,,,,,,,,Open,40,1975-08-19
1,M,Pavel Bychkov,Павел Бычков,98.9,250,-255,-255,250,,250,100,D,Raw,Yes,,,,,,,,,,,Masters 40-44,40,1975-08-19
1,M,Egor Konovalov,Егор Коновалов,108.7,275,-285,-285,275,,275,110,D,Raw,Yes,,,,,,,,,,,Open,24,1991-09-24
1,M,Aleksey Galygin,Алексей Галыгин,142.8,270,-310,-310,270,,270,140+,D,Raw,Yes,,,,,,,,,,,Open,38,1977-10-03
1,F,Mariya Udalova,Мария Удалова,49.7,70,-75,75,75,,75,52,D,Raw,No,,,,,,,,,,,Juniors 20-23,20,1995-06-08
1,F,Elena Ochirova,Елена Очирова,55.5,110,115,-125,115,,115,56,D,Raw,No,,,,,,,,,,,Open,40,1975-09-15
1,F,Viktoriya Ablaeva,Виктория Аблаева,60,160,-165,172.5,172.5,,172.5,60,D,Raw,No,,,,,,,,,,,Open,32,1983-05-08
1,F,Olga Lobacheva,Ольга Лобачева,56.4,80,90,-100,90,,90,60,D,Raw,No,,,,,,,,,,,Masters 45-49,45,1970-02-03
1,F,Aleksandra Kalyonova,Александра Калёнова,65.3,-80,80,-100,80,,80,67.5,D,Raw,No,,,,,,,,,,,Open,25,1990-09-05
1,F,Kristina Kalintseva,Кристина Калинцева,68.3,80,90,100,100,,100,75,D,Raw,No,,,,,,,,,,,Juniors 20-23,20,1995-10-17
1,F,Natalya Trukhina,Наталья Трухина,82.2,200,215,,215,,215,82.5,D,Raw,No,,,,,,,,,,,Open,24,1991-07-01
1,F,Irina Arkhipova,Ирина Архипова,85.4,105,-115,115,115,,115,90,D,Raw,No,,,,,,,,,,,Open,35,1980-10-06
1,M,Nikolay Prokaev,Николай Прокаев,64.9,140,165,175,175,,175,67.5,D,Raw,No,,,,,,,,,,,Open,28,1987-06-17
1,M,Vyacheslav Kapitonov,Вячеслав Капитонов,76.6,180,190,200,200,,200,82.5,D,Raw,No,,,,,,,,,,,Teen 18-19,19,1996-04-16
1,M,Aleksey Sheykin,Алексей Шейкин,89.6,275,,,275,,275,90,D,Raw,No,,,,,,,,,,,Open,27,1988-03-24
2,M,Aleksandr Ivanov,Александр Иванов,87.9,230,,,230,,230,90,D,Raw,No,,,,,,,,,,,Open,27,1988-06-02
1,M,Sergey Vinogradov,Сергей Виноградов,88.8,-170,170,-190,170,,170,90,D,Raw,No,,,,,,,,,,,Masters 45-49,45,1970-06-27
1,M,Aleksandr Dudchenko,Александр Дудченко,88,130,140,-150,140,,140,90,D,Raw,No,,,,,,,,,,,Masters 65-69,69,1946-09-03
1,M,Valentin Mironov,Валентин Миронов,92.1,205,215,225,225,-230,225,100,D,Raw,No,,,,,,,,,,,Teen 18-19,18,1997-05-23
1,M,Anton Ilyasov,Антон Илясов,97.5,337.5,350,-360,350,,350,100,D,Raw,No,,,,,,,,,,,Open,26,1988-11-25
2,M,Andrey Bulgar,Андрей Булгарь,99.1,312.5,325,-335,325,,325,100,D,Raw,No,,,,,,,,,,,Open,27,1988-06-27
3,M,Aleksey Ermakov,Алексей Ермаков,97.5,215,230,245,245,,245,100,D,Raw,No,,,,,,,,,,,Open,26,1988-11-14
4,M,Aleksey Karev,Алексей Карев,92.9,230,-245,-245,230,,230,100,D,Raw,No,,,,,,,,,,,Open,36,1979-08-31
1,M,Dmitriy Devyatkin,Дмитрий Девяткин,107.9,330,350,-360,350,,350,110,D,Raw,No,,,,,,,,,,,Open,24,1991-09-29
2,M,Vladimir Letyaev,Владимир Летяев,101.8,170,180,190,190,,190,110,D,Raw,No,,,,,,,,,,,Open,39,1976-08-21
1,M,Valeriy Sytnikov,Валерий Сытников,109,270,,,270,,270,110,D,Raw,No,,,,,,,,,,,Masters 45-49,45,1970-02-28
1,M,Vladimir Marchenko,Владимир Марченко,122.2,300,-320,-335,300,,300,125,D,Raw,No,,,,,,,,,,,Open,37,1978-04-22
2,M,Aleksey Lebed,Алексей Лебедь,114.8,240,270,,270,,270,125,D,Raw,No,,,,,,,,,,,Open,26,1989-07-28
3,M,Aleksey Petrov,Алексей Петров,116.4,230,250,262.5,262.5,,262.5,125,D,Raw,No,,,,,,,,,,,Open,32,1983-05-24
1,M,Andrey Inyutin,Андрей Инютин,133.8,310,320,330,330,,330,140,D,Raw,No,,,,,,,,,,,Masters 40-44,40,1975-05-18
1,F,Natalya Bakhmatova,Наталья Бахматова,61.5,,,,,,70,67.5,B,Raw,No,65,70,-77.5,70,,,,,,,Masters 45-49,45,1970-02-11
1,M,Vladimir Bardokin,Владимир Бардокин,45,,,,,,80,52,B,Raw,No,60,70,80,80,,,,,,,Juniors 20-23,21,1994-04-26
2,M,Vadim Chernyshov,Вадим Чернышов,50,,,,,,75,52,B,Raw,No,65,70,75,75,,,,,,,Juniors 20-23,20,1995-01-30
1,M,Kirill Dmitriev,Кирилл Дмитриев,52.9,,,,,,90,56,B,Raw,No,90,-95,-95,90,,,,,,,Open,34,1981-04-20
1,M,Egor Avershin,Егор Авершин,57.3,,,,,,45,60,B,Raw,No,35,40,45,45,,,,,,,Open,25,1990-07-22
1,M,Pavel Varavin,Павел Варавин,67.5,,,,,,95,67.5,B,Raw,No,85,90,95,95,,,,,,,Open,33,1982-07-11
1,M,Dmitriy Abdalov,Дмитрий Абдалов,80.5,,,,,,85,82.5,B,Raw,No,75,80,85,85,,,,,,,Open,26,1989-02-28
1,M,Anton Vostrikov,Антон Востриков,87,,,,,,105,90,B,Raw,No,90,105,-112.5,105,,,,,,,Juniors 20-23,20,1995-06-07
1,M,Aleksandr Stanovenkov,Александр Становенков,87.1,,,,,,85,90,B,Raw,No,75,80,85,85,,,,,,,Open,29,1986-08-09
1,M,Sergey Kolosov,Сергей Колосов,90.3,,,,,,65,100,B,Raw,No,55,60,65,65,,,,,,,Open,27,1988-07-23
1,M,Oleg Belushkin,Олег Белушкин,99.1,,,,,,105,100,B,Raw,No,95,100,105,105,,,,,,,Masters 50-54,52,1963-01-19
1,M,Konstantin Bogdanov,Константин Богданов,137.5,,,,,,190,140,B,Raw,No,190,-197.5,,190,,,,,,,Open,39,1976-05-14
1,M,Marina Sinotova,Марина Синотова,73.6,,,,,,90,75,B,Multi-ply,Yes,85,90,-95,90,,,,,,,Open,26,1988-12-31
1,M,Aleksey Sheykin,Алексей Шейкин,89.6,,,,,,200,90,B,Multi-ply,Yes,165,185,200,200,,,,,,,Open,27,1988-03-24
1,M,Evgeniy Buyanov,Евгений Буянов,98,,,,,,187.5,100,B,Multi-ply,Yes,187.5,-200,-215,187.5,,,,,,,Open,32,1983-10-17
1,M,Mikhail Antsiferov,Михаил Анциферов,107.7,,,,,,230,110,B,Multi-ply,Yes,230,,,230,,,,,,,Open,34,1981-07-02
1,M,Andrey Grigorev,Андрей Григорьев,104.8,,,,,,172.5,110,B,Multi-ply,Yes,172.5,,,172.5,,,,,,,Masters 50-54,50,1965-03-25
1,M,Denis Belyaev,Денис Беляев,113.5,,,,,,230,125,B,Multi-ply,Yes,220,230,-237.5,230,,,,,,,Open,40,1975-06-27
1,M,Denis Belyaev,Денис Беляев,113.4,,,,,,230,125,B,Multi-ply,Yes,220,230,-237.5,230,,,,,,,Masters 40-44,40,1975-06-27
1,M,Alla Pugovkina,Алла Пуговкина,81.6,,,,,,142.5,82.5,B,Multi-ply,No,135,142.5,-150,142.5,,,,,,,Open,39,1975-12-12
DQ,M,Yuriy Knyazev,Юрий Князев,74.2,,,,,,,75,B,Multi-ply,No,-175,-175,-180,,,,,,,,Open,31,1983-12-07
1,M,Ruslan Ilyushin,Руслан Илюшин,80.3,,,,,,175,82.5,B,Multi-ply,No,165,175,-187.5,175,,,,,,,Open,24,1991-02-25
1,M,Aleksey Sheykin,Алексей Шейкин,89.6,,,,,,200,90,B,Multi-ply,No,200,,,200,,,,,,,Open,27,1988-03-24
DQ,M,Ilya Lipin,Илья Липин,100,,,,,,,100,B,Multi-ply,No,-180,-187.5,-192.5,,,,,,,,Teen 18-19,19,1996-07-27
1,M,Sergey Kalinin,Сергей Калинин,99.8,,,,,,237.5,100,B,Multi-ply,No,225,232.5,237.5,237.5,,,,,,,Open,33,1982-02-05
2,M,Dmitriy Polikarpov,Дмитрий Поликарпов,99.6,,,,,,200,100,B,Multi-ply,No,200,-210,-210,200,,,,,,,Open,36,1979-08-01
1,M,Aleksandr Olkhovskiy,Александр Ольховский,108.3,,,,,,250,110,B,Multi-ply,No,-250,250,-260,250,,,,,,,Open,36,1978-12-25
2,M,Akhmed Musaev,Ахмед Мусаев,104.1,,,,,,207.5,110,B,Multi-ply,No,190,-200,207.5,207.5,,,,,,,Open,35,1980-10-10
3,M,Aleksandr Zhiltsov,Александр Жильцов,107.5,,,,,,207.5,110,B,Multi-ply,No,190,202.5,207.5,207.5,,,,,,,Open,30,1985-04-04
1,M,Kirill Kayava,Кирилл Каява,138.5,,,,,,302.5,140,B,Multi-ply,No,285,295,302.5,302.5,,,,,,,Open,39,1976-06-24
1,F,Elizaveta Martynova,Елизавета Мартынова,43,,,,,,53,44,B,Raw,Yes,51,53,-55,53,,,,,,,Teen 13-15,14,2001-05-18
1,F,Elizaveta Martynova,Елизавета Мартынова,43,,,,,,53,44,B,Raw,Yes,51,53,-55,53,,,,,,,Open,14,2001-05-18
1,F,Alla Pavlichenko,Алла Павличенко,47.2,,,,,,45,48,B,Raw,Yes,45,-52.5,-52.5,45,,,,,,,Masters 40-44,41,1974-10-15
1,F,Yaroslava Yaropolova,Ярослава Ярополова,51.3,,,,,,50,52,B,Raw,Yes,50,-55,-55,50,,,,,,,Open,26,1989-10-21
DQ,F,Marina Zelenina,Марина Зеленина,51.2,,,,,,,52,B,Raw,Yes,-52.5,-57.5,-57.5,,,,,,,,Open,31,1984-03-18
1,F,Polina Bobrova,Полина Боброва,54.2,,,,,,40,56,B,Raw,Yes,-40,-40,40,40,,,,,,,Teen 18-19,19,1996-06-17
1,F,Anna Blinnikova,Анна Блинникова,55.2,,,,,,45,56,B,Raw,Yes,45,-47.5,-47.5,45,,,,,,,Juniors 20-23,21,1994-04-19
1,F,Svetlana Cherkasova,Светлана Черкасова,55.1,,,,,,62.5,56,B,Raw,Yes,55,-62.5,62.5,62.5,,,,,,,Open,26,1989-03-30
2,F,Olga Khvoynitskaya,Ольга Хвойницкая,55.7,,,,,,37.5,56,B,Raw,Yes,37.5,-45,-45,37.5,,,,,,,Open,28,1987-02-15
1,F,Anastasiya Mindlina,Анастасия Миндлина,58.3,,,,,,62.5,60,B,Raw,Yes,62.5,-65,-65,62.5,,,,,,,Teen 18-19,19,1996-06-09
1,F,Olga Krichmar,Ольга Кричмар,59.4,,,,,,62.5,60,B,Raw,Yes,62.5,-67.5,-67.5,62.5,,,,,,,Open,33,1982-03-09
1,F,Oksana Fomenko,Оксана Фоменко,71.3,,,,,,70,75,B,Raw,Yes,65,70,-75,70,,,,,,,Open,27,1988-07-28
1,M,David Oganesyan,Давид Оганесян,64.7,,,,,,100,67.5,B,Raw,Yes,90,95,100,100,,,,,,,Teen 13-15,14,2001-04-16
1,M,Aleksandr Ignatov,Александр Игнатов,65.9,,,,,,87.5,67.5,B,Raw,Yes,-87.5,87.5,-90,87.5,,,,,,,Teen 16-17,16,1999-08-21
1,M,Artem Danelyants,Артем Данельянц,66.5,,,,,,135,67.5,B,Raw,Yes,135,-142.5,-142.5,135,,,,,,,Juniors 20-23,22,1993-08-01
1,M,Nikita Samokhvalov,Никита Самохвалов,65.4,,,,,,142.5,67.5,B,Raw,Yes,130,137.5,142.5,142.5,,,,,,,Open,27,1988-08-11
2,M,Dmitriy Borisenko,Дмитрий Борисенко,63.3,,,,,,140,67.5,B,Raw,Yes,132.5,137.5,140,140,,,,,,,Open,27,1988-04-12
3,M,Radislav Revutskiy,Радислав Ревуцкий,65.7,,,,,,127.5,67.5,B,Raw,Yes,120,125,127.5,127.5,,,,,,,Open,25,1990-06-13
4,M,Andrey Molchanov,Андрей Молчанов,65.8,,,,,,120,67.5,B,Raw,Yes,120,-125,-127.5,120,,,,,,,Open,26,1989-05-17
1,M,Nikolay Obukhov,Николай Обухов,67,,,,,,95,67.5,B,Raw,Yes,92.5,95,-97.5,95,,,,,,,Masters 60-64,62,1953-04-02
1,M,Mikhail Miroshnichenko,Михаил Мирошниченко,73.4,,,,,,112.5,75,B,Raw,Yes,107.5,112.5,-117.5,112.5,,,,,,,Teen 16-17,17,1997-12-31
2,M,Daniil Gomyrov,Даниил Гомыров,69.8,,,,,,105,75,B,Raw,Yes,100,105,-107.5,105,,,,,,,Teen 18-19,19,1996-02-28
DQ,M,Kirill Sitdikov,Кирилл Ситдиков,70,,,,,,,75,B,Raw,Yes,-115,-117.5,-117.5,,,,,,,,Juniors 20-23,22,1993-10-31
1,M,Ivan Kazantsev,Иван Казанцев,69.2,,,,,,95,75,B,Raw,Yes,90,95,-100,95,,,,,,,Open,33,1982-10-18
2,M,Kirill Gavrikov,Кирилл Гавриков,73.2,,,,,,85,75,B,Raw,Yes,-85,85,-95,85,,,,,,,Open,29,1986-10-19
DQ,M,Ivan Nagornykh,Иван Нагорных,74,,,,,,,75,B,Raw,Yes,-100,-105,-105,,,,,,,,Open,32,1983-03-16
1,M,Sergey Sidorovskiy,Сергей Сидоровский,74.2,,,,,,125,75,B,Raw,Yes,117,122.5,125,125,,,,,,,Masters 40-44,44,1971-05-12
1,M,Dmitriy Fursov,Дмитрий Фурсов,81.6,,,,,,72.5,82.5,B,Raw,Yes,62.5,67.5,72.5,72.5,,,,,,,Teen 13-15,13,2002-10-08
1,M,Daniil Nasyrov,Даниил Насыров,82,,,,,,110,82.5,B,Raw,Yes,100,110,-115,110,,,,,,,Teen 16-17,16,1999-06-30
1,M,Ilya Pankratov,Илья Панкратов,80.4,,,,,,185,82.5,B,Raw,Yes,-185,185,-195,185,,,,,,,Open,28,1986-12-09
2,M,Levon Pogosov,Левон Погосов,79.5,,,,,,150,82.5,B,Raw,Yes,-150,-150,150,150,,,,,,,Open,33,1982-06-12
3,M,Sergey Kogtev,Сергей Когтев,78.9,,,,,,145,82.5,B,Raw,Yes,-137.5,137.5,145,145,,,,,,,Open,26,1988-11-28
4,M,Anton Morozov,Антон Морозов,80,,,,,,130,82.5,B,Raw,Yes,-130,130,-140,130,,,,,,,Open,31,1984-05-28
5,M,Denis Esakov,Денис Есаков,81.4,,,,,,127.5,82.5,B,Raw,Yes,115,122.5,127.5,127.5,,,,,,,Open,29,1986-05-25
1,M,Nikita Romanov,Никита Романов,89,,,,,,180,90,B,Raw,Yes,175,180,-185,180,,,,,,,Juniors 20-23,23,1992-03-09
DQ,M,Andrey Roshchupkin,Андрей Рощупкин,88,,,,,,,90,B,Raw,Yes,-142.5,-147.5,,,,,,,,,Juniors 20-23,21,1994-07-17
1,M,Aleksey Sheykin,Алексей Шейкин,89.6,,,,,,170,90,B,Raw,Yes,165,170,,170,,,,,,,Open,27,1988-03-24
2,M,Vladislav Girko,Владислав Гирко,88.2,,,,,,155,90,B,Raw,Yes,155,-160,-160,155,,,,,,,Open,28,1987-09-19
3,M,Aleksandr Lyashenko,Александр Ляшенко,88.1,,,,,,147.5,90,B,Raw,Yes,-147.5,147.5,-155,147.5,,,,,,,Open,38,1977-01-22
DQ,M,Aleksey Bukalov,Алексей Букалов,87,,,,,,,90,B,Raw,Yes,-152.5,-152.5,-152.5,,,,,,,,Open,38,1976-12-10
DQ,M,Timofey Yurtaev,Тимофей Юртаев,88,,,,,,,90,B,Raw,Yes,-170,-170,-170,,,,,,,,Open,27,1988-09-21
1,M,Igor Chernyshov,Игорь Чернышов,89.7,,,,,,157.5,90,B,Raw,Yes,142.5,152.5,157.5,157.5,,,,,,,Masters 45-49,46,1969-07-14
2,M,Eduard Sotnikov,Эдуард Сотников,84,,,,,,155,90,B,Raw,Yes,-150,155,-157.5,155,,,,,,,Masters 45-49,48,1967-09-12
1,M,Pavel Trukhtanov,Павел Трухтанов,97.9,,,,,,180,100,B,Raw,Yes,167.5,175,180,180,,,,,,,Open,39,1976-10-30
2,M,Aleksandr Snetkov,Александр Снетков,100,,,,,,180,100,B,Raw,Yes,170,175,180,180,,,,,,,Open,28,1987-01-24
3,M,Aleksey Osipenko,Алексей Осипенко,96.4,,,,,,155,100,B,Raw,Yes,-155,-155,155,155,,,,,,,Open,30,1985-05-09
4,M,Boris Avetisyan,Борис Аветисян,99.9,,,,,,150,100,B,Raw,Yes,145,-150,150,150,,,,,,,Open,28,1987-08-27
5,M,Ivan Pronin,Иван Пронин,98.5,,,,,,145,100,B,Raw,Yes,-145,145,-160,145,,,,,,,Open,30,1985-06-21
6,M,Oleg Ozerov,Олег Озеров,96.5,,,,,,140,100,B,Raw,Yes,-140,140,-145,140,,,,,,,Open,32,1982-12-22
DQ,M,Aleksandr Yunanov,Александр Юнанов,97,,,,,,,100,B,Raw,Yes,-140,-140,-140,,,,,,,,Masters 40-44,41,1974-09-17
1,M,Aleksandr Kletsov,Александр Клецов,98.4,,,,,,162.5,100,B,Raw,Yes,-157.5,160,162.5,162.5,,,,,,,Masters 45-49,48,1967-07-19
1,M,Andrey Chelyshev,Андрей Челышев,95.6,,,,,,102.5,100,B,Raw,Yes,95,100,102.5,102.5,,,,,,,Masters 50-54,51,1963-11-29
1,M,Sergey Bannikov,Сергей Банников,95.2,,,,,,80,100,B,Raw,Yes,75,80,-85,80,,,,,,,Masters 55-59,55,1960-10-05
1,M,Pavel Kislov,Павел Кислов,107.6,,,,,,170,110,B,Raw,Yes,170,-175,-177.5,170,,,,,,,Open,32,1983-05-26
2,M,Vasiliy Reznikov,Василий Резников,108.5,,,,,,170,110,B,Raw,Yes,-162.5,170,-180,170,,,,,,,Open,31,1984-03-06
DQ,M,Andrey Petrov,Андрей Петров,109.6,,,,,,,110,B,Raw,Yes,-195,-195,,,,,,,,,Open,32,1983-01-29
1,M,Evgeniy Zuykov,Евгений Зуйков,120.3,,,,,,177.5,125,B,Raw,Yes,-170,170,177.5,177.5,,,,,,,Juniors 20-23,21,1994-05-10
1,M,Andrey Khramtsov,Андрей Храмцов,122.8,,,,,,210,125,B,Raw,Yes,200,210,-215,210,,,,,,,Open,31,1984-09-18
2,M,Karen Avetisyan,Карэн Аветисян,123.8,,,,,,202.5,125,B,Raw,Yes,190,-202.5,202.5,202.5,,,,,,,Open,26,1989-01-24
3,M,Denis Ogloblin,Денис Оглоблин,121.1,,,,,,197.5,125,B,Raw,Yes,192.5,-197.5,197.5,197.5,,,,,,,Open,48,1967-05-12
4,M,Denis Avdeev,Денис Авдеев,118.5,,,,,,152.5,125,B,Raw,Yes,145,-152.5,152.5,152.5,,,,,,,Open,30,1985-06-14
5,M,Denis Kosyanenko,Денис Косьяненко,118.7,,,,,,85,125,B,Raw,Yes,-85,85,-90,85,,,,,,,Open,34,1980-12-17
1,M,Denis Favorskiy,Денис Фаворский,112.4,,,,,,145,125,B,Raw,Yes,145,-155,,145,,,,,,,Masters 40-44,44,1971-07-16
1,M,Denis Ogloblin,Денис Оглоблин,121.1,,,,,,197.5,125,B,Raw,Yes,192.5,-197.5,197.5,197.5,,,,,,,Masters 45-49,48,1967-05-12
1,M,Konstantin Bogdanov,Константин Богданов,137.5,,,,,,195,140,B,Raw,Yes,190,195,-200,195,,,,,,,Open,39,1976-05-14
1,M,Aleksey Shoniya,Алексей Шония,129.9,,,,,,175,140,B,Raw,Yes,165,175,-182.5,175,,,,,,,Masters 45-49,45,1970-09-20
1,F,Oksana Nefedeva,Оксана Нефедьева,47.2,,,,,,42.5,48,B,Raw,No,-42.5,42.5,-45,42.5,,,,,,,Teen 18-19,19,1996-06-24
1,F,Viktoriya Ablaeva,Виктория Аблаева,60,,,,,,70,60,B,Raw,No,70,,,70,,,,,,,Open,32,1983-05-08
1,F,Anna Rogozyanskaya,Анна Рогозянская,64.8,,,,,,65,67.5,B,Raw,No,60,65,-70,65,,,,,,,Open,28,1987-05-16
1,F,Anastasiya Baydur,Анастасия Байдур,75.2,,,,,,55,82.5,B,Raw,No,50,55,-62.5,55,,,,,,,Juniors 20-23,22,1992-12-13
1,F,Viktoriya Knysh,Виктория Кныш,85.2,,,,,,150,90,B,Raw,No,145,150,-162.5,150,,,,,,,Open,32,1983-03-21
1,M,Aleksey Bender,Алексей Бендер,75,,,,,,97.5,75,B,Raw,No,95,97.5,-100,97.5,,,,,,,Teen 18-19,18,1997-04-27
1,M,Maksim Chernyshev,Максим Чернышев,74.7,,,,,,165,75,B,Raw,No,155,-165,165,165,,,,,,,Juniors 20-23,23,1992-09-21
1,M,Yuriy Churin,Юрий Чурин,72.3,,,,,,143,75,B,Raw,No,135,140,143,143,,,,,,,Masters 40-44,44,1971-06-06
2,M,Nikolay Lysenkov,Николай Лысенков,71.9,,,,,,107.5,75,B,Raw,No,97.5,102.5,107.5,107.5,,,,,,,Masters 40-44,42,1973-01-28
1,M,Kirill Vavakin,Кирилл Вавакин,79.8,,,,,,120,82.5,B,Raw,No,110,120,-135,120,,,,,,,Teen 18-19,18,1997-03-11
1,M,Stanislav Milostnoy,Станислав Милостной,80.8,,,,,,240,82.5,B,Raw,No,-235,240,-245,240,,,,,,,Open,36,1978-12-19
1,M,Dmitriy Shchapov,Дмитрий Щапов,84,,,,,,100,90,B,Raw,No,100,-120,-130,100,,,,,,,Juniors 20-23,21,1994-07-18
1,M,Roman Shchekleev,Роман Щеклеев,86.9,,,,,,175,90,B,Raw,No,155,165,175,175,,,,,,,Open,26,1989-08-27
2,M,Aleksey Sheykin,Алексей Шейкин,89.6,,,,,,170,90,B,Raw,No,170,,,170,,,,,,,Open,27,1988-03-24
3,M,Shamil Askerov,Шамиль Аскеров,84.4,,,,,,155,90,B,Raw,No,145,152.5,155,155,,,,,,,Open,26,1989-04-01
4,M,Aleksandr Ivanov,Александр Иванов,87.9,,,,,,155,90,B,Raw,No,155,,,155,,,,,,,Open,27,1988-06-02
1,M,Sergey Popov,Сергей Попов,88.7,,,,,,190,90,B,Raw,No,185,190,-192.5,190,,,,,,,Masters 40-44,41,1974-05-31
1,M,Valentin Mironov,Валентин Миронов,92.1,,,,,,135,100,B,Raw,No,-130,135,-140,135,,,,,,,Teen 18-19,18,1997-05-23
1,M,Andrey Nikulin,Андрей Никулин,99.3,,,,,,207.5,100,B,Raw,No,200,207.5,-215,207.5,,,,,,,Open,47,1967-12-01
2,M,Kirill Artemov,Кирилл Артемов,97.8,,,,,,185,100,B,Raw,No,180,185,-190,185,,,,,,,Open,33,1982-06-08
3,M,Igor Kononov,Игорь Кононов,94.1,,,,,,165,100,B,Raw,No,150,160,165,165,,,,,,,Open,24,1991-06-12
4,M,Ivan Pronin,Иван Пронин,98.5,,,,,,155,100,B,Raw,No,145,155,-160,155,,,,,,,Open,30,1985-06-21
DQ,M,Sergey Muratov,Сергей Муратов,96.6,,,,,,,100,B,Raw,No,-152.5,-152.5,-152.5,,,,,,,,Open,33,1982-08-09
1,M,Andrey Nikulin,Андрей Никулин,99.3,,,,,,207.5,100,B,Raw,No,200,207.5,-215,207.5,,,,,,,Masters 45-49,47,1967-12-01
1,M,Anton Kovrigin,Антон Ковригин,106.5,,,,,,165,110,B,Raw,No,160,165,-167.5,165,,,,,,,Open,30,1985-09-21
1,M,Artem Kobanov,Артем Кобанов,107.5,,,,,,225,110,B,Raw,No,217.5,222.5,225,225,,,,,,,Open,23,1992-01-10
2,M,Evgeniy Spirkin,Евгений Спиркин,107.8,,,,,,222.5,110,B,Raw,No,217.5,222.5,-225,222.5,,,,,,,Open,27,1987-11-14
3,M,Aleksey Stolyarov,Алексей Столяров,108.1,,,,,,215,110,B,Raw,No,207.5,215,-225,215,,,,,,,Open,29,1986-01-29
4,M,Artem Nikandrov,Артем Никандров,108.7,,,,,,192.5,110,B,Raw,No,192.5,-200,-200,192.5,,,,,,,Open,32,1983-07-10
5,M,Aleksandr Titkin,Александр Титкин,107.7,,,,,,187.5,110,B,Raw,No,180,187.5,-192.5,187.5,,,,,,,Open,28,1987-09-04
6,M,Akhmed Musaev,Ахмед Мусаев,104.1,,,,,,180,110,B,Raw,No,180,-190,,180,,,,,,,Open,35,1980-10-10
1,M,Eduard Dmitriev,Эдуард Дмитриев,106.9,,,,,,200,110,B,Raw,No,200,-215,-215,200,,,,,,,Masters 40-44,43,1972-05-26
2,M,Boris Karasev,Борис Карасев,106.7,,,,,,175,110,B,Raw,No,175,-185,-185,175,,,,,,,Masters 40-44,43,1972-08-26
1,M,Sergey Khodakov,Сергей Ходаков,105,,,,,,205,110,B,Raw,No,195,205,-210,205,,,,,,,Masters 45-49,46,1969-10-08
1,M,Sergey Filinovich,Сергей Филинович,102.7,,,,,,172.5,110,B,Raw,No,165,172.5,-175,172.5,,,,,,,Masters 50-54,54,1961-04-05
1,M,Aleksandr Oreshkin,Александр Орешкин,123.1,,,,,,210,125,B,Raw,No,202.5,210,,210,,,,,,,Open,33,1982-08-21
2,M,Aleksey Lebed,Алексей Лебедь,114.8,,,,,,207.5,125,B,Raw,No,207.5,,,207.5,,,,,,,Open,26,1989-07-28
3,M,Denis Favorskiy,Денис Фаворский,112.4,,,,,,145,125,B,Raw,No,145,,,145,,,,,,,Open,44,1971-07-16
1,M,Denis Puzyrev,Денис Пузырев,116.9,,,,,,175,125,B,Raw,No,175,-180,-182.5,175,,,,,,,Masters 40-44,41,1974-03-31
1,M,Nikolay Dubina,Николай Дубина,114.7,,,,,,190,125,B,Raw,No,170,180,190,190,,,,,,,Masters 45-49,49,1966-04-18
1,M,Andrey Skorobogatko,Андрей Скоробогатько,111.5,,,,,,172.5,125,B,Raw,No,160,172.5,-177.5,172.5,,,,,,,Masters 50-54,52,1963-03-29
1,M,Oleg Larionov,Олег Ларионов,136.5,,,,,,235,140,B,Raw,No,210,-230,235,235,,,,,,,Masters 40-44,41,1974-10-12
2,M,Andrey Inyutin,Андрей Инютин,133.8,,,,,,230,140,B,Raw,No,215,222.5,230,230,,,,,,,Masters 40-44,40,1975-05-18
1,M,Stanislav Karpov,Станислав Карпов,161.3,,,,,,225,140+,B,Raw,No,215,225,-232.5,225,,,,,,,Masters 40-44,44,1971-04-07
1,M,Mikhail Antsiferov,Михаил Анциферов,107.7,,,,,,260,110,S,Single-ply,Yes,,,,,,240,260,,260,,Open,34,1981-07-02
1,F,Anna Sverchkova,Анна Сверчкова,74.7,,,,,,185,75,S,Wraps,No,,,,,,170,-185,185,185,,Open,24,1991-04-22
1,M,Aleksey Sheykin,Алексей Шейкин,89.6,,,,,,225,90,S,Wraps,No,,,,,,225,,,225,,Open,27,1988-03-24
1,M,Yaroslav Trubichkin,Ярослав Трубичкин,97.3,,,,,,342.5,100,S,Wraps,No,,,,,,320,-342.5,342.5,342.5,,Open,28,1987-06-16
1,M,Oleg Mishkin,Олег Мишкин,118.1,,,,,,215,125,S,Wraps,No,,,,,,190,205,215,215,,Teen 16-17,17,1998-01-30
1,F,Galina Netrebina,Галина Нетребина,55.1,,,,,,75,56,S,Raw,Yes,,,,,,-70,70,75,75,,Open,37,1978-07-07
1,F,Veronika Ukolova,Вероника Уколова,114.9,,,,,,175,90+,S,Raw,Yes,,,,,,165,170,175,175,,Teen 18-19,18,1997-06-17
1,M,Aleksey Sheykin,Алексей Шейкин,89.6,,,,,,225,90,S,Raw,Yes,,,,,,220,225,,225,,Open,27,1988-03-24
1,M,Aleksey Sheykin,Алексей Шейкин,89.6,,,,,,225,90,S,Raw,No,,,,,,220,225,,225,,Open,27,1988-03-24
2,M,Aleksandr Ivanov,Александр Иванов,87.9,,,,,,210,90,S,Raw,No,,,,,,210,-225,-225,210,,Open,27,1988-06-02
1,M,Aleksandr Kochetov,Александр Кочетов,93.4,,,,,,215,100,S,Raw,No,,,,,,205,-215,215,215,225,Open,28,1987-07-16
1,M,Ilya Ushkov,Илья Ушков,103.6,,,,,,245,110,S,Raw,No,,,,,,245,,,245,,Open,39,1976-06-21
1,M,Sergey Ustinov,Сергей Устинов,123.1,,,,,,270,125,S,Raw,No,,,,,,-270,270,-300,270,,Open,27,1988-04-23
1,M,Aleksey Sheykin,Алексей Шейкин,89.6,275,,,275,,700,90,SBD,Single-ply,Yes,200,,,200,,225,,,225,,Open,27,1988-03-24
1,M,Maksim Tomilin,Максим Томилин,106.3,220,-232.5,-232.5,220,,632.5,110,SBD,Single-ply,Yes,155,160,167.5,167.5,,235,245,-252.5,245,,Juniors 20-23,22,1993-06-22
1,M,Mikhail Antsiferov,Михаил Анциферов,107.7,215,225,-237.5,225,,715,110,SBD,Single-ply,Yes,230,-240,-240,230,,240,260,-270,260,,Open,34,1981-07-02
1,M,Andrey Grigorev,Андрей Григорьев,104.8,210,220,-225,220,,612.5,110,SBD,Single-ply,Yes,165,172.5,-177.5,172.5,,210,220,-225,220,,Masters 50-54,50,1965-03-25
1,M,Ilya Kokorev,Илья Кокорев,79.8,225,250,275,275,,790,82.5,SBD,Single-ply,No,205,215,-220,215,,280,-295,300,300,,Open,42,1973-01-19
1,M,Ilya Kokorev,Илья Кокорев,79.8,225,250,275,275,,790,82.5,SBD,Single-ply,No,205,215,-220,215,,280,-295,300,300,,Masters 40-44,42,1973-01-19
1,M,Aleksey Sheykin,Алексей Шейкин,89.6,275,,,275,,700,90,SBD,Single-ply,No,165,200,,200,,225,,,225,,Open,27,1988-03-24
1,M,Ruslan Guseynov,Руслан Гусейнов,108.5,260,280,-290,280,,800,110,SBD,Single-ply,No,220,-240,-240,220,,-290,-300,300,300,,Open,36,1978-11-29
1,M,Nikolay Emtsev,Николай Емцев,107.1,265,275,-280,275,,765,110,SBD,Single-ply,No,190,200,-205,200,,265,280,290,290,,Masters 45-49,48,1967-05-23
1,F,Alisa Bystrova,Алиса Быстрова,66.8,132.5,-137.5,142.5,142.5,,330,67.5,SBD,Wraps,Yes,57.5,-60,60,60,,120,-125,127.5,127.5,,Open,26,1988-12-27
1,M,Viktor Yashin,Виктор Яшин,80.9,155,167.5,172.5,172.5,,460,82.5,SBD,Wraps,Yes,105,112.5,117.5,117.5,,170,-182.5,-182.5,170,,Open,26,1989-10-29
1,M,Denis Antonov,Денис Антонов,88.4,200,-225,-225,200,,527.5,90,SBD,Wraps,Yes,107.5,115,117.5,117.5,,-190,-190,210,210,,Open,36,1979-02-16
DQ,M,Aleksey Safonov,Алексей Сафонов,97,,,,,,,100,SBD,Wraps,Yes,,,,,,-215,-220,-225,,,Juniors 20-23,22,1992-12-09
1,M,Aleksey Eskin,Алексей Еськин,96,200,-207.5,207.5,207.5,,582.5,100,SBD,Wraps,Yes,130,135,142.5,142.5,,215,225,232.5,232.5,,Open,24,1991-03-21
DQ,F,Anna Sverchkova,Анна Сверчкова,74.7,,,,,,,75,SBD,Wraps,No,-95,-95,-95,,,170,-185,185,185,,Open,24,1991-04-22
1,M,Boris Koloskov,Борис Колосков,82.4,240,260,-270,260,,610,82.5,SBD,Wraps,No,127.5,132.5,135,135,,-200,-215,215,215,,Open,29,1986-06-27
1,M,Dmitriy Ryakhovskiy,Дмитрий Ряховский,89.4,240,250,,250,,677.5,90,SBD,Wraps,No,150,160,165,165,,245,255,262.5,262.5,,Open,26,1989-09-05
1,M,Dmitriy Bogdanov,Дмитрий Богданов,99.5,275,-307.5,-307.5,275,,757.5,100,SBD,Wraps,No,185,192.5,-200,192.5,,-290,290,-305,290,,Juniors 20-23,23,1992-06-29
1,M,Yaroslav Trubichkin,Ярослав Трубичкин,97.3,275,290,302.5,302.5,,840,100,SBD,Wraps,No,175,190,195,195,,320,-342.5,342.5,342.5,,Open,28,1987-06-16
1,M,Pavel Papenkov,Павел Папенков,106.3,280,-300,-300,280,,735,110,SBD,Wraps,No,175,180,-182.5,180,,250,265,275,275,,Open,35,1980-02-29
2,M,Andrey Zolotarenok,Андрей Золотаренок,106.4,220,-235,235,235,,645,110,SBD,Wraps,No,160,170,-175,170,,210,225,240,240,,Open,36,1978-11-23
1,M,Valeriy Sytnikov,Валерий Сытников,109,250,270,-280,270,,610,110,SBD,Wraps,No,140,147.5,-152.5,147.5,,170,185,192.5,192.5,,Masters 45-49,45,1970-02-28
1,M,Nikita Lunnin,Никита Луннин,115,240,250,-255,250,,650,125,SBD,Wraps,No,165,-170,-170,165,,235,-242.5,-242.5,235,,Juniors 20-23,21,1993-11-17
1,M,Oleg Bunin,Олег Бунин,116.9,240,250,260,260,,650,125,SBD,Wraps,No,165,175,-185,175,,200,215,-230,215,,Open,36,1979-05-20
1,M,Konstantin Askhabov,Константин Асхабов,127.1,250,290,310,310,,775,140,SBD,Wraps,No,160,-175,-175,160,,280,305,,305,,Masters 40-44,40,1975-01-31
1,F,Oksana Kuznetsova,Оксана Кузнецова,48,-100,100,110,110,,240,48,SBD,Raw,Yes,50,-55,-55,50,,70,75,80,80,,Open,25,1990-07-07
1,F,Natalya Konchakova,Наталья Кончакова,50.8,135,-142.5,142.5,142.5,,315,52,SBD,Raw,Yes,57.5,60,62.5,62.5,,-107.5,110,-115,110,,Open,38,1977-08-14
DQ,F,Olga Koltsova,Ольга Кольцова,50.3,,,,,,,52,SBD,Raw,Yes,-57.5,-62.5,-62.5,,,77.5,-85,-85,77.5,,Open,32,1983-08-06
DQ,F,Anna Bukhova,Анна Бухова,64.5,,,,,,,67.5,SBD,Raw,Yes,,,,,,-95,-95,-95,,,Teen 18-19,19,1995-11-14
1,F,Anastasiya Zamashnyuk,Анастасия Замашнюк,73.7,100,110,120,120,,270,75,SBD,Raw,Yes,45,50,-52.5,50,,90,-97.5,100,100,,Teen 18-19,19,1996-03-23
1,F,Veronika Ukolova,Вероника Уколова,114.9,135,142.5,150,150,,407.5,90+,SBD,Raw,Yes,77.5,82.5,-85,82.5,,165,170,175,175,,Open,18,1997-06-17
1,M,Suren Mkrtumyan,Сурен Мкртумян,64.5,172.5,187.5,200,200,,420,67.5,SBD,Raw,Yes,87.5,-97.5,-97.5,87.5,,122.5,-132.5,132.5,132.5,,Open,26,1989-01-15
1,M,Vladislav Suleymanov,Владислав Сулейманов,74.1,210,-230,-230,210,,500,75,SBD,Raw,Yes,110,120,-125,120,,155,170,-180,170,,Juniors 20-23,20,1995-05-31
1,M,Vladislav Suleymanov,Владислав Сулейманов,74.1,210,-230,-230,210,,500,75,SBD,Raw,Yes,110,120,-125,120,,155,170,-180,170,,Open,20,1995-05-31
1,M,Stanislav Ivanov,Станислав Иванов,80.8,150,167.5,182.5,182.5,,462.5,82.5,SBD,Raw,Yes,117.5,-125,-125,117.5,,140,155,162.5,162.5,,Juniors 20-23,20,1995-01-25
1,M,Vasiliy Kupreychik,Василий Купрейчик,80.5,145,155,160,160,,415,82.5,SBD,Raw,Yes,-110,120,-127.5,120,,-135,135,-140,135,,Open,32,1983-10-17
1,M,Aleksey Sheykin,Алексей Шейкин,89.6,250,265,275,275,,670,90,SBD,Raw,Yes,-170,170,-175,170,,220,225,-230,225,,Open,27,1988-03-24
2,M,Sergey Burdakov,Сергей Бурдаков,85,145,160,170,170,,415,90,SBD,Raw,Yes,95,100,-105,100,,135,145,-152.5,145,,Open,36,1979-07-02
1,M,Purya Makhmudi,Пурья Махмуди,96.5,160,180,190,190,,490,100,SBD,Raw,Yes,130,-145,-145,130,,170,-190,-190,170,,Juniors 20-23,20,1995-01-22
1,M,Mokhammadreza Azarmina,Мохаммадреза Азармина,95.8,140,160,175,175,,465,100,SBD,Raw,Yes,130,150,160,160,,100,-120,130,130,,Open,25,1990-09-20
2,M,Ebrakhim Bankhmanpur,Эбрахим Банхманпур,95,100,-140,,100,,335,100,SBD,Raw,Yes,100,-120,-120,100,,80,120,135,135,,Open,33,1982-09-23
3,M,Mokhsen Fatekh,Мохсен Фатех,100,-100,100,-200,100,,260,100,SBD,Raw,Yes,80,,,80,,-80,80,,80,,Open,36,1979-04-29
1,M,Khornarvar Burumand,Хорнарвар Буруманд,100.9,175,190,205,205,,475,110,SBD,Raw,Yes,120,-130,-130,120,,150,-160,-160,150,,Open,38,1977-06-05
2,M,Motlag Mokhammadpur,Мотлаг Мохаммадпур,107.5,130,,,130,,340,110,SBD,Raw,Yes,150,160,-190,160,,50,,,50,,Open,30,1985-05-15
1,M,Reza Zamani,Реза Замани,115.2,220,235,245,245,,630,125,SBD,Raw,Yes,160,170,180,180,,-180,190,205,205,,Open,38,1977-04-21
1,F,Oksana Lomova,Оксана Ломова,78.9,172.5,177.5,-182.5,177.5,,440,82.5,SBD,Raw,No,92.5,97.5,-100,97.5,,155,160,165,165,,Open,32,1983-08-19
1,M,Viktor Kopaev,Виктор Копаев,74.2,200,-220,-220,200,,542.5,75,SBD,Raw,No,140,145,150,150,,180,-190,192.5,192.5,,Open,25,1990-02-02
2,M,Aleksandr Krasnov,Александр Краснов,74.8,180,190,197.5,197.5,,507.5,75,SBD,Raw,No,112.5,117.5,122.5,122.5,,175,182.5,187.5,187.5,,Open,26,1989-05-12
3,M,Denis Kiselev,Денис Киселев,73.5,200,212.5,,212.5,,497.5,75,SBD,Raw,No,110,117.5,-122.5,117.5,,160,167.5,-172.5,167.5,,Open,32,1983-02-06
1,M,Aleksey Sheykin,Алексей Шейкин,89.6,275,,,275,,670,90,SBD,Raw,No,170,,,170,,225,,,225,,Open,27,1988-03-24
2,M,Igor Sidorov,Игорь Сидоров,83.7,220,230,-235,230,,622.5,90,SBD,Raw,No,160,170,-175,170,,207.5,215,222.5,222.5,,Open,28,1987-01-08
3,M,Aleksandr Ivanov,Александр Иванов,87.9,230,-260,-260,230,,595,90,SBD,Raw,No,145,155,-160,155,,210,-225,-225,210,,Open,27,1988-06-02
DQ,M,Vladimir Kvasov,Владимир Квасов,89.5,-230,,,,,,90,SBD,Raw,No,-140,,,,,-210,,,,,Open,24,1991-04-17
1,M,Igor Chupryakov,Игорь Чупряков,94.4,230,240,245,245,,645,100,SBD,Raw,No,-180,180,185,185,,-200,200,215,215,,Masters 40-44,40,1975-08-31
1,M,Vitaliy Ryabykh,Виталий Рябых,105,230,-245,-250,230,,640,110,SBD,Raw,No,170,180,185,185,,210,225,-230,225,,Juniors 20-23,23,1992-05-06
1,M,Sergey Ustinov,Сергей Устинов,123.1,270,290,-310,290,,745,125,SBD,Raw,No,170,185,-200,185,,-270,270,-300,270,,Open,27,1988-04-23
