Place,Sex,Name,CyrillicName,BodyweightKg,Squat1Kg,Squat2Kg,Squat3Kg,Best3SquatKg,Squat4Kg,Bench1Kg,Bench2Kg,Bench3Kg,Best3BenchKg,Bench4Kg,Deadlift1Kg,Deadlift2Kg,Deadlift3Kg,Best3DeadliftKg,Deadlift4Kg,TotalKg,WeightClassKg,Event,Equipment,Tested,Division,Age,BirthDate
1,F,Svetlana Zelenina,Светлана Зеленина,47.3,82.5,87.5,-92.5,87.5,,47.5,50,52.5,52.5,,85,90,95,95,,235,48,SBD,Raw,Yes,Open,27,1990-01-07
DQ,F,Viktoriya Gribkova,Виктория Грибкова,51.2,-75,-75,-75,,,,,,,,,,,,,,52,SBD,Raw,Yes,Open,35,1982-04-04
1,F,Mariya Gostyukhina,Мария Гостюхина,55.2,95,-100,,95,,50,-52.5,-52.5,50,,100,105,-115,105,,250,56,SBD,Raw,Yes,Open,26,1990-09-16
2,F,Zara Arutyunyan,Зара Арутюнян,54.7,60,70,72.5,72.5,,35,40,-42.5,40,,90,100,105,105,,217.5,56,SBD,Raw,Yes,Open,25,1991-05-30
1,F,Elena Bovinova,Елена Бовинова,59,90,100,-105,100,,45,47.5,50,50,,110,-115,115,115,,265,60,SBD,Raw,Yes,Open,34,1982-12-07
2,F,Aleksandra Guseva,Александра Гусева,59.1,-65,70,72.5,72.5,,35,40,45,45,,70,75,80,80,,197.5,60,SBD,Raw,Yes,Open,25,1992-04-21
3,F,Elena Koptyaeva,Елена Коптяева,58.3,65,70,77.5,77.5,,30,35,-40,35,,65,70,-80,70,,182.5,60,SBD,Raw,Yes,Open,28,1989-04-11
1,F,Tatyana Varenyuk,Татьяна Варенюк,63.2,120,127.5,132.5,132.5,,65,70,-72.5,70,,140,150,-162.5,150,,352.5,67.5,SBD,Raw,Yes,Open,32,1985-03-08
2,F,Irina Kudelkina,Ирина Куделькина,67.1,102.5,110,120,120,,55,62.5,70,70,,95,-105,105,105,,295,67.5,SBD,Raw,Yes,Open,30,1987-04-27
1,M,Abdul Mirzoev,Абдул Мирзоев,48.5,60,-70,70,70,,50,57.5,-62.5,57.5,,75,85,-95,85,,212.5,52,SBD,Raw,Yes,Juniors 20-23,20,1996-12-04
1,M,Aleksey Pikalov,Алексей Пикалов,65.6,140,-150,-150,140,,80,85,-90,85,,160,180,-190,180,,405,67.5,SBD,Raw,Yes,Open,30,1986-12-19
1,M,Yan Lennok,Ян Леннок,73.8,160,165,-170,165,,-105,105,-112.5,105,,200,207.5,212.5,212.5,,482.5,75,SBD,Raw,Yes,Teen 13-15,15,2001-06-08
1,M,Nikita Nogotkov,Никита Ноготков,75,160,170,180,180,,110,117.5,122.5,122.5,,200,207.5,210,210,,512.5,75,SBD,Raw,Yes,Teen 16-17,16,2001-03-08
1,M,Anton Mokosin,Антон Мокосин,73.5,147.5,-155,-155,147.5,,115,122.5,-127.5,122.5,,170,180,-185,180,,450,75,SBD,Raw,Yes,Open,30,1987-05-06
1,M,Maksim Balabaev,Максим Балабаев,81.1,115,125,-135,125,,80,87.5,92.5,92.5,,155,165,-170,165,,382.5,82.5,SBD,Raw,Yes,Teen 13-15,15,2001-05-15
1,M,Rustam Sadovyy,Рустам Садовый,80.8,-140,140,-160,140,,95,105,-110,105,,152.5,170,-190,170,,415,82.5,SBD,Raw,Yes,Teen 18-19,18,1998-11-03
1,M,Andrey Karavanov,Андрей Караванов,80.2,-130,140,160,160,,85,95,-102.5,95,,150,170,-200,170,,425,82.5,SBD,Raw,Yes,Juniors 20-23,21,1996-03-30
1,M,Aleksandr Morozov,Александр Морозов,77.7,195,-205,-205,195,,135,140,-145,140,,217.5,227.5,232.5,232.5,,567.5,82.5,SBD,Raw,Yes,Open,33,1983-07-30
2,M,Aleksey Medvednikov,Алексей Медведников,82.2,150,160,175,175,,130,137.5,-145,137.5,,190,197.5,205,205,,517.5,82.5,SBD,Raw,Yes,Open,29,1988-03-19
3,M,Vyacheslav Bovinov,Вячеслав Бовинов,81.4,150,160,-170,160,,125,-130,-130,125,,190,200,210,210,,495,82.5,SBD,Raw,Yes,Open,36,1980-06-16
4,M,Dmitriy Belozerov,Дмитрий Белозеров,82.2,160,167.5,-172.5,167.5,,130,-137.5,-140,130,,-190,197.5,-205,197.5,,495,82.5,SBD,Raw,Yes,Open,38,1978-12-08
5,M,Roman Radzhabov,Роман Раджабов,82.2,150,160,165,165,,100,-110,110,110,,175,190,200,200,,475,82.5,SBD,Raw,Yes,Open,32,1985-02-23
6,M,Nikita Zuev,Никита Зуев,81.2,140,-150,-150,140,,105,112.5,-115,112.5,,180,-185,185,185,,437.5,82.5,SBD,Raw,Yes,Open,30,1986-12-02
1,M,Nikolay Kuznetsov,Николай Кузнецов,83.5,90,110,-125,110,,90,100,-105,100,,150,-185,185,185,,395,90,SBD,Raw,Yes,Open,28,1988-12-26
1,M,Aleksandr Molodtsov,Александр Молодцов,96.7,200,212.5,-220,212.5,,145,155,-160,155,,230,240,-250,240,,607.5,100,SBD,Raw,Yes,Open,38,1978-10-21
2,M,Nikita Radchenko,Никита Радченко,95.9,190,200,-205,200,,120,-130,-130,120,,-190,-190,190,190,,510,100,SBD,Raw,Yes,Open,33,1983-05-19
DQ,M,Vyacheslav Savvaitov,Вячеслав Савваитов,98.3,-200,-200,-200,,,,,,,,,,,,,,100,SBD,Raw,Yes,Open,30,1986-10-01
1,M,Nikolay Shasherin,Николай Шашерин,106.7,260,270,280,280,,170,180,190,190,,275,285,295,295,,765,110,SBD,Raw,Yes,Open,30,1987-01-20
2,M,Nikolay Akulov,Николай Акулов,107.7,165,-175,180,180,,135,140,-145,140,,195,205,215,215,,535,110,SBD,Raw,Yes,Open,30,1986-08-15
1,F,Anna Ganina,Анна Ганина,55.2,-70,70,72.5,72.5,,40,45,-47.5,45,,80,85,90,90,,207.5,56,SBD,Raw,No,Open,28,1988-12-25
1,F,Valentina Drozdyuk,Валентина Дроздюк,67.2,120,-130,135,135,,80,87.5,-95,87.5,,150,160,170,170,,392.5,67.5,SBD,Raw,No,Open,35,1981-07-20
1,F,Lyudmila Polonnik,Людмила Полонник,103.8,-85,85,90,90,,60,65,-67.5,65,,90,100,110,110,,265,90+,SBD,Raw,No,Open,38,1978-09-20
1,M,Nikita Durapov,Никита Дурапов,55.8,70,77.5,85,85,,45,50,-52.5,50,,80,90,100,100,,235,56,SBD,Raw,No,Teen 13-15,13,2003-07-29
1,M,Danila Lopatin,Данила Лопатин,58.8,80,90,97.5,97.5,,50,-57.5,-57.5,50,,90,100,110,110,,257.5,60,SBD,Raw,No,Teen 13-15,13,2003-09-06
1,M,Yuriy Kobelev,Юрий Кобелев,58.7,145,155,-165,155,,-115,120,122.5,122.5,,190,200,-210,200,,477.5,60,SBD,Raw,No,Juniors 20-23,22,1994-12-16
1,M,Nikita Gorbunov,Никита Горбунов,66.5,170,180,190,190,,90,100,-110,100,,175,185,195,195,,485,67.5,SBD,Raw,No,Juniors 20-23,21,1996-01-03
1,M,Saveliy Gayduk,Савелий Гайдук,69.9,-90,90,,90,,60,62.5,,62.5,,120,-130,130,130,,282.5,75,SBD,Raw,No,Masters 60-64,61,1956-01-19
1,M,Roman Malyshev,Роман Малышев,89.2,200,-215,-215,200,,160,167.5,-175,167.5,,240,-250,250,250,,617.5,90,SBD,Raw,No,Open,38,1978-08-20
DQ,M,Sergey Spirkov,Сергей Спирков,85.4,-100,-105,-105,,,-100,100,-105,100,,100,120,135,135,,,90,SBD,Raw,No,Masters 45-49,46,1971-01-05
1,M,Aleksey Bragin,Алексей Брагин,99.8,210,215,227.5,227.5,,160,-170,-170,160,,250,270,-275,270,,657.5,100,SBD,Raw,No,Open,33,1984-02-13
2,M,Sergey Moiseev,Сергей Моисеев,99.7,215,225,-230,225,,145,150,-155,150,,240,260,-275,260,,635,100,SBD,Raw,No,Open,39,1977-08-24
1,M,Dmitriy Elfimov,Дмитрий Елфимов,104.6,-250,250,-260,250,,170,177.5,,177.5,,280,-287.5,-287.5,280,,707.5,110,SBD,Raw,No,Open,30,1986-11-09
1,M,Ilya Kalininskiy,Илья Калининский,111.9,230,240,250,250,,220,-225,,220,,280,290,300,300,,770,125,SBD,Raw,No,Open,28,1989-04-11
1,F,Anastasiya Proskuryakova,Анастасия Проскурякова,58,-100,-100,100,100,,50,55,-57.5,55,,100,107.5,112.5,112.5,,267.5,60,SBD,Wraps,Yes,Teen 16-17,17,2000-02-04
DQ,F,Yuliya Trofimova,Юлия Трофимова,62.5,-72.5,-75,-75,,,37.5,42.5,-45,42.5,,75,-77.5,77.5,77.5,,,67.5,SBD,Wraps,Yes,Teen 18-19,18,1998-10-29
1,M,Aleksey Pikalov,Алексей Пикалов,65.6,140,-150,-150,140,,80,85,-90,85,,160,180,-190,180,,405,67.5,SBD,Wraps,Yes,Open,30,1986-12-19
1,M,Maksim Novikov,Максим Новиков,81.7,215,225,230,230,,137.5,142.5,145,145,,235,245,250,250,,625,82.5,SBD,Wraps,Yes,Teen 18-19,18,1998-12-20
1,M,Artur Mkhitaryan,Артур Мхитарян,82.1,220,230,-240,230,,115,125,-132.5,125,,225,245,-260,245,,600,82.5,SBD,Wraps,Yes,Juniors 20-23,23,1994-02-12
1,M,Maksim Novikov,Максим Новиков,81.7,215,225,230,230,,137.5,142.5,145,145,,235,245,250,250,,625,82.5,SBD,Wraps,Yes,Open,18,1998-12-20
2,M,Ivan Korolev,Иван Королев,79.8,170,-180,180,180,,110,120,-127.5,120,,-190,190,-200,190,,490,82.5,SBD,Wraps,Yes,Open,34,1982-07-01
1,M,Igor Chayka,Игорь Чайка,86.9,190,-205,-205,190,,-100,105,-110,105,,-210,225,-257.5,225,,520,90,SBD,Wraps,Yes,Juniors 20-23,22,1994-06-09
1,M,Aleksey Levoshkin,Алексей Левошкин,88.1,180,190,200,200,,115,120,125,125,,210,230,-240,230,,555,90,SBD,Wraps,Yes,Open,29,1987-11-30
2,M,Aleksey Shchigol,Алексей Щиголь,85.9,190,-200,-200,190,,140,145,-150,145,,200,210,217.5,217.5,,552.5,90,SBD,Wraps,Yes,Open,31,1985-11-05
1,M,Evgeniy Karpov,Евгений Карпов,95.7,190,200,210,210,,115,122.5,-130,122.5,,190,205,215,215,,547.5,100,SBD,Wraps,Yes,Open,32,1984-11-06
1,M,Tatyana Zlydennaya,Татьяна Злыденная,66.5,120,130,-140,130,,-55,60,-67.5,60,,130,140,-145,140,,330,67.5,SBD,Wraps,No,Open,30,1987-01-28
DQ,M,Elena Ageeva,Елена Агеева,67.8,-140,-160,-160,,,,,,,,,,,,,,75,SBD,Wraps,No,Open,34,1982-05-26
1,M,Mikhail Boykov,Михаил Бойков,74,-195,-195,195,195,,120,122.5,-125,122.5,,180,-190,,180,,497.5,75,SBD,Wraps,No,Teen 18-19,19,1997-10-19
1,M,Aleksandr Vakhrushev,Александр Вахрушев,75,200,210,220,220,,120,125,130,130,,220,232.5,240,240,,590,75,SBD,Wraps,No,Juniors 20-23,21,1995-11-07
1,M,Aleksandr Vakhrushev,Александр Вахрушев,75,200,210,220,220,,120,125,130,130,,220,232.5,240,240,,590,75,SBD,Wraps,No,Open,21,1995-11-07
2,M,Dmitriy Teplyakov,Дмитрий Тепляков,72.9,195,-202.5,-202.5,195,,137.5,142.5,-145,142.5,,210,225,-230,225,,562.5,75,SBD,Wraps,No,Open,43,1974-03-04
3,M,Artem Kotov,Артем Котов,72.5,160,170,-180,170,,130,-135,135,135,,210,230,240,240,,545,75,SBD,Wraps,No,Open,28,1989-01-08
4,M,Mikhail Boykov,Михаил Бойков,74,-195,-195,195,195,,120,122.5,-125,122.5,,180,-190,,180,,497.5,75,SBD,Wraps,No,Open,19,1997-10-19
1,M,Dmitriy Teplyakov,Дмитрий Тепляков,72.9,195,-202.5,-202.5,195,,137.5,142.5,-145,142.5,,210,225,-230,225,,562.5,75,SBD,Wraps,No,Masters 40-44,43,1974-03-04
1,M,Pavel Moiseev,Павел Моисеев,82.1,-230,-230,230,230,,140,-145,-145,140,,200,210,-220,210,,580,82.5,SBD,Wraps,No,Open,28,1988-09-11
DQ,M,Nikita Lichutin,Никита Личутин,89.9,-240,-250,250,250,,140,150,-155,150,,-240,-240,-252.5,,,,90,SBD,Wraps,No,Juniors 20-23,22,1994-07-10
1,M,Nikolay Durapov,Николай Дурапов,89,250,260,-270,260,,140,145,150,150,,290,300,-305,300,,710,90,SBD,Wraps,No,Open,36,1980-07-17
2,M,Artem Popov,Артем Попов,89.7,235,-245,,235,,155,165,-175,165,,-250,-250,250,250,,650,90,SBD,Wraps,No,Open,26,1991-04-08
3,M,Kirill Ermolovich,Кирилл Ермолович,88.1,-240,240,-250,240,,160,165,-167.5,165,,220,230,-240,230,,635,90,SBD,Wraps,No,Open,30,1987-01-28
1,M,Aleksey Yakushevich,Алексей Якушевич,99.3,280,-300,300,300,,150,165,172.5,172.5,,280,300,307.5,307.5,,780,100,SBD,Wraps,No,Open,25,1991-07-02
2,M,Oleg Silyugin,Олег Силюгин,92.8,-215,225,235,235,,-170,175,-185,175,,-210,215,-220,215,,625,100,SBD,Wraps,No,Open,47,1970-04-23
1,M,Artem Krot,Артем Крот,103.9,260,270,280,280,,150,-160,160,160,,-320,330,-345,330,,770,110,SBD,Single-ply,No,Juniors 20-23,21,1995-10-03
1,M,Aleksandr Chayka,Александр Чайка,108.7,230,240,250,250,,150,155,-160,155,,190,-200,-200,190,,595,110,SBD,Single-ply,No,Open,30,1986-12-12
1,M,Irina Kudelkina,Ирина Куделькина,67.1,102.5,110,120,120,,,,,,,,,,,,120,67.5,S,Raw,Yes,Open,30,1987-04-27
1,M,Evgeniy Bayborodin,Евгений Байбородин,65.5,130,140,145,145,,,,,,,,,,,,145,67.5,S,Raw,Yes,Open,30,1987-01-23
1,M,Aleksandr Morozov,Александр Морозов,77.7,195,-205,-205,195,,,,,,,,,,,,195,82.5,S,Raw,Yes,Open,33,1983-07-30
1,M,Nikita Gorbunov,Никита Горбунов,66.5,170,180,190,190,,,,,,,,,,,,190,67.5,S,Raw,No,Juniors 20-23,21,1996-01-03
1,M,Sergey Moiseev,Сергей Моисеев,99.7,215,225,-230,225,,,,,,,,,,,,225,100,S,Raw,No,Open,39,1977-08-24
1,F,Olga Sondor,Ольга Сондор,51.5,95,105,-110,105,,,,,,,,,,,,105,52,S,Wraps,Yes,Open,24,1992-07-09
1,F,Elena Nelyubova,Елена Нелюбова,42.8,,,,,,42.5,45,-47.5,45,,,,,,,45,44,B,Raw,Yes,Open,29,1987-05-14
1,F,Anastasiya Lebedeva,Анастасия Лебедева,51.8,,,,,,-65,65,67.5,67.5,,,,,,,67.5,52,B,Raw,Yes,Open,26,1991-01-26
1,F,Diana Vlasova,Диана Власова,55.9,,,,,,37.5,42.5,-47.5,42.5,,,,,,,42.5,56,B,Raw,Yes,Juniors 20-23,20,1997-04-23
1,F,Irina Gryzuleva,Ирина Грызулева,55.4,,,,,,47.5,-52.5,-52.5,47.5,,,,,,,47.5,56,B,Raw,Yes,Open,42,1975-03-17
1,F,Polina Verkhovinskaya,Полина Верховинская,58.1,,,,,,37.5,40,42.5,42.5,,,,,,,42.5,60,B,Raw,Yes,Youth,12,2004-06-12
1,F,Veronika German,Вероника Герман,58.8,,,,,,35,-40,-40,35,,,,,,,35,60,B,Raw,Yes,Teen 16-17,16,2001-02-20
1,F,Marina Maltseva,Марина Мальцева,58,,,,,,45,47.5,-50,47.5,,,,,,,47.5,60,B,Raw,Yes,Open,26,1990-09-30
1,F,Yuliya Trofimova,Юлия Трофимова,67.5,,,,,,37.5,42.5,-45,42.5,,,,,,,42.5,67.5,B,Raw,Yes,Teen 18-19,18,1998-10-29
1,F,Nina Vitukhnovskaya,Нина Витухновская,65.6,,,,,,50,52.5,-55,52.5,,,,,,,52.5,67.5,B,Raw,Yes,Open,25,1992-03-09
1,F,Elena Kotina,Елена Котина,75,,,,,,65,67.5,-70,67.5,,,,,,,67.5,75,B,Raw,Yes,Open,40,1977-03-25
2,F,Kseniya Kurylyova,Ксения Курылёва,69.6,,,,,,50,-52.5,-52.5,50,,,,,,,50,75,B,Raw,Yes,Open,24,1992-10-10
1,F,Elena Kotina,Елена Котина,75,,,,,,65,67.5,-70,67.5,,,,,,,67.5,75,B,Raw,Yes,Masters 40-44,40,1977-03-25
1,M,Pavel Butenin,Павел Бутенин,55.2,,,,,,90,95,-97.5,95,,,,,,,95,56,B,Raw,Yes,Open,35,1981-09-03
1,M,Maksimilian Vasilevskiy,Максимилиан Василевский,66.9,,,,,,102.5,-105,-105,102.5,,,,,,,102.5,67.5,B,Raw,Yes,Teen 18-19,19,1997-12-24
1,M,Pavel Kolomeychuk,Павел Коломейчук,64.5,,,,,,,-125,125,125,,,,,,,125,67.5,B,Raw,Yes,Juniors 20-23,23,1993-05-19
DQ,M,Andrey Sergeev,Андрей Сергеев,65.2,,,,,,-115,-125,-125,,,,,,,,,67.5,B,Raw,Yes,Juniors 20-23,20,1997-03-06
1,M,Pavel Kolomeychuk,Павел Коломейчук,64.5,,,,,,-125,-125,125,125,,,,,,,125,67.5,B,Raw,Yes,Open,23,1993-05-19
1,M,Artem Antonov,Артем Антонов,75,,,,,,105,-110,-117.5,105,,,,,,,105,75,B,Raw,Yes,Teen 16-17,17,1999-12-08
1,M,Dmitriy Korobov,Дмитрий Коробов,73.8,,,,,,-135,137.5,-147.5,137.5,,,,,,,137.5,75,B,Raw,Yes,Open,26,1990-07-22
2,M,Stanislav Kharin,Станислав Харин,72.7,,,,,,-117.5,-127.5,135,135,,,,,,,135,75,B,Raw,Yes,Open,26,1990-06-11
1,M,Ivan Tulnikov,Иван Тульников,80.7,,,,,,137.5,145,-147.5,145,,,,,,,145,82.5,B,Raw,Yes,Juniors 20-23,22,1994-08-27
1,M,Aleksandr Morozov,Александр Морозов,77.7,,,,,,135,140,-145,140,,,,,,,140,82.5,B,Raw,Yes,Open,33,1983-07-30
2,M,Aleksey Medvednikov,Алексей Медведников,82.2,,,,,,130,137.5,-145,137.5,,,,,,,137.5,82.5,B,Raw,Yes,Open,29,1988-03-19
3,M,Yuriy Nechaev,Юрий Нечаев,81,,,,,,135,-140,-145,135,,,,,,,135,82.5,B,Raw,Yes,Open,25,1991-09-20
1,M,Pavel Belykh,Павел Белых,90,,,,,,170,175,-180,175,,,,,,,175,90,B,Raw,Yes,Open,36,1980-08-06
2,M,Oleg Kuznetsov,Олег Кузнецов,89.7,,,,,,160,165,170,170,,,,,,,170,90,B,Raw,Yes,Open,26,1990-09-09
3,M,Evgeniy Kokvin,Евгений Коквин,89.5,,,,,,-130,-140,140,140,,,,,,,140,90,B,Raw,Yes,Open,36,1980-11-06
4,M,Yuriy Kalistratov,Юрий Калистратов,88,,,,,,137.5,-142.5,-142.5,137.5,,,,,,,137.5,90,B,Raw,Yes,Open,28,1988-11-22
5,M,Dmitriy Ovchinnikov,Дмитрий Овчинников,84.8,,,,,,132.5,135,-137.5,135,,,,,,,135,90,B,Raw,Yes,Open,26,1990-05-24
6,M,Sergey Pesterev,Сергей Пестерев,84.7,,,,,,130,132.5,-135,132.5,,,,,,,132.5,90,B,Raw,Yes,Open,28,1988-09-19
7,M,Oleg Orlov,Олег Орлов,89.2,,,,,,112.5,-117.5,-117.5,112.5,,,,,,,112.5,90,B,Raw,Yes,Open,33,1984-01-29
1,M,Maksim Tulikov,Максим Туликов,87,,,,,,122.5,127.5,132.5,132.5,,,,,,,132.5,90,B,Raw,Yes,Submasters 35-39,39,1977-06-26
1,M,Evgeniy Khaydukov,Евгений Хайдуков,98.7,,,,,,165,170,177.5,177.5,,,,,,,177.5,100,B,Raw,Yes,Open,34,1983-04-19
2,M,Mikhail Kanin,Михаил Канин,97.3,,,,,,170,175,-180,175,,,,,,,175,100,B,Raw,Yes,Open,38,1978-07-06
3,M,Sergey Gusev,Сергей Гусев,97.15,,,,,,165,170,172.5,172.5,,,,,,,172.5,100,B,Raw,Yes,Open,29,1988-01-11
4,M,Aleksey Titov,Алексей Титов,97.2,,,,,,140,155,162.5,162.5,,,,,,,162.5,100,B,Raw,Yes,Open,38,1979-02-05
5,M,Vyacheslav Savvaitov,Вячеслав Савваитов,98.3,,,,,,150,-155,-155,150,,,,,,,150,100,B,Raw,Yes,Open,30,1986-10-01
6,M,Aleksandr Gruzdev,Александр Груздев,99,,,,,,150,-162.5,-162.5,150,,,,,,,150,100,B,Raw,Yes,Open,21,1995-07-30
7,M,Sergey Ivashevskiy,Сергей Ивашевский,98.3,,,,,,135,140,-142.5,140,,,,,,,140,100,B,Raw,Yes,Open,38,1978-12-12
8,M,Vyacheslav Vasilenko,Вячеслав Василенко,92.2,,,,,,-112.5,-115,115,115,,,,,,,115,100,B,Raw,Yes,Open,38,1979-05-04
1,M,Sergey Mukhtarov,Сергей Мухтаров,98.1,,,,,,150,-155,-155,150,,,,,,,150,100,B,Raw,Yes,Masters 55-59,56,1961-02-17
1,M,Maksim Vladimirov,Максим Владимиров,110,,,,,,177.5,182.5,185,185,,,,,,,185,110,B,Raw,Yes,Open,35,1981-10-25
2,M,Aleksey Maksimov,Алексей Максимов,100.9,,,,,,167.5,175,-180,175,,,,,,,175,110,B,Raw,Yes,Open,29,1988-04-12
1,M,Leonid Peterson,Леонид Петерсон,107.4,,,,,,155,-160,-160,155,,,,,,,155,110,B,Raw,Yes,Masters 40-44,43,1974-04-22
1,M,Igor Zvezdin,Игорь Звездин,110,,,,,,120,125,130,130,,,,,,,130,110,B,Raw,Yes,Masters 55-59,58,1958-08-02
1,M,Dmitriy Belyaev,Дмитрий Беляев,111.3,,,,,,-157.5,165,167.5,167.5,,,,,,,167.5,125,B,Raw,Yes,Open,32,1984-06-12
2,M,Andrey Sazhin,Андрей Сажин,116.5,,,,,,152.5,160,165,165,,,,,,,165,125,B,Raw,Yes,Open,34,1983-01-08
1,M,Vladimir Gusev,Владимир Гусев,121.5,,,,,,-160,160,167.5,167.5,,,,,,,167.5,125,B,Raw,Yes,Masters 45-49,48,1968-09-01
1,M,Vladimir Osipov,Владимир Осипов,59,,,,,,130,135,-140,135,,,,,,,135,60,B,Raw,No,Open,31,1985-10-27
1,M,Artem Kotov,Артем Котов,72.5,,,,,,130,-135,135,135,,,,,,,135,75,B,Raw,No,Open,28,1989-01-08
2,M,Saveliy Gayduk,Савелий Гайдук,69.9,,,,,,60,62.5,,62.5,,,,,,,62.5,75,B,Raw,No,Open,61,1956-01-19
1,M,Viktor Moskvin,Виктор Москвин,79.1,,,,,,150,-155,-155,150,,,,,,,150,82.5,B,Raw,No,Juniors 20-23,20,1996-12-17
1,M,Aleksandr Ironov,Александр Иронов,81.6,,,,,,170,175,180,180,,,,,,,180,82.5,B,Raw,No,Open,30,1987-02-17
2,M,Aleksandr Rassokhin,Александр Рассохин,80.5,,,,,,155,160,165,165,,,,,,,165,82.5,B,Raw,No,Open,31,1985-10-08
3,M,Andrey Vilchinskiy,Андрей Вильчинский,81.5,,,,,,155,160,-165,160,,,,,,,160,82.5,B,Raw,No,Open,25,1992-02-10
4,M,Anatoliy Ivashko,Анатолий Ивашко,81.7,,,,,,155,-160,-162.5,155,,,,,,,155,82.5,B,Raw,No,Open,27,1990-01-03
5,M,Viktor Moskvin,Виктор Москвин,79.1,,,,,,150,-155,-155,150,,,,,,,150,82.5,B,Raw,No,Open,20,1996-12-17
6,M,Aleksandr Klinovitskiy,Александр Клиновицкий,81,,,,,,110,115,120,120,,,,,,,120,82.5,B,Raw,No,Open,25,1992-01-31
1,M,Aleksey Pavlov,Алексей Павлов,85.6,,,,,,160,170,182.5,182.5,,,,,,,182.5,90,B,Raw,No,Open,39,1978-01-18
2,M,Roman Malyshev,Роман Малышев,89.2,,,,,,160,167.5,-175,167.5,,,,,,,167.5,90,B,Raw,No,Open,38,1978-08-20
3,M,Artem Popov,Артем Попов,89.7,,,,,,155,165,-175,165,,,,,,,165,90,B,Raw,No,Open,26,1991-04-08
4,M,Aleksey Soymin,Алексей Соймин,89,,,,,,152.5,157.5,160,160,,,,,,,160,90,B,Raw,No,Open,24,1992-07-20
5,M,Sergey Golubkov,Сергей Голубков,89.2,,,,,,140,145,-152.5,145,,,,,,,145,90,B,Raw,No,Open,26,1990-12-14
6,M,Sergey Spirkov,Сергей Спирков,85.4,,,,,,-100,100,-105,100,,,,,,,100,90,B,Raw,No,Open,46,1971-01-05
1,M,Igor Ladochkin,Игорь Ладочкин,89.2,,,,,,160,-175,-175,160,,,,,,,160,90,B,Raw,No,Masters 40-44,41,1975-08-17
1,M,Sergey Zarubin,Сергей Зарубин,83.2,,,,,,-130,130,135,135,,,,,,,135,90,B,Raw,No,Masters 55-59,57,1959-09-13
1,M,Aleksey Sokolov,Алексей Соколов,96.7,,,,,,190,200,207.5,207.5,,,,,,,207.5,100,B,Raw,No,Open,32,1984-10-10
2,M,Sergey Nelaev,Сергей Нелаев,99.7,,,,,,180,187.5,-192.5,187.5,,,,,,,187.5,100,B,Raw,No,Open,35,1982-03-01
3,M,Oleg Silyugin,Олег Силюгин,93,,,,,,-170,175,-185,175,,,,,,,175,100,B,Raw,No,Open,47,1970-04-23
4,M,Sergey Krylov,Сергей Крылов,95.6,,,,,,150,160,170,170,,,,,,,170,100,B,Raw,No,Open,27,1989-08-03
5,M,Viktor Khaydin,Виктор Хайдин,97.5,,,,,,-160,-160,160,160,,,,,,,160,100,B,Raw,No,Open,29,1987-06-03
1,M,Aleksey Sobolev,Алексей Соболев,99.8,,,,,,185,195,-205,195,,,,,,,195,100,B,Raw,No,Masters 40-44,44,1973-03-31
2,M,Vadim Vitsin,Вадим Вицин,99,,,,,,175,185,190,190,,,,,,,190,100,B,Raw,No,Masters 40-44,40,1976-08-23
3,M,Sergey Shamov,Сергей Шамов,96.2,,,,,,165,-170,-170,165,,,,,,,165,100,B,Raw,No,Masters 40-44,43,1973-08-21
4,M,Denis Knyazhev,Денис Княжев,92.9,,,,,,160,-165,,160,,,,,,,160,100,B,Raw,No,Masters 40-44,40,1976-06-01
1,M,Igor Popov,Игорь Попов,98.8,,,,,,160,167.5,-175,167.5,,,,,,,167.5,100,B,Raw,No,Masters 50-54,51,1965-09-11
1,M,Nikita Gubenskiy,Никита Губенский,108.8,,,,,,205,-215,-215,205,,,,,,,205,110,B,Raw,No,Juniors 20-23,22,1995-04-06
1,M,Andrey Nikonorov,Андрей Никоноров,106.6,,,,,,230,240,250,250,,,,,,,250,110,B,Raw,No,Open,41,1975-10-26
2,M,Valentin Pashovkin,Валентин Пашовкин,108.2,,,,,,155,-167.5,-167.5,155,,,,,,,155,110,B,Raw,No,Open,31,1985-05-28
1,M,Andrey Nikonorov,Андрей Никоноров,106.6,,,,,,230,240,250,250,,,,,,,250,110,B,Raw,No,Masters 40-44,41,1975-10-26
1,M,Vadim Tarasov,Вадим Тарасов,103,,,,,,145,150,-155,150,,,,,,,150,110,B,Raw,No,Masters 55-59,55,1962-01-23
1,M,Ilya Kalininskiy,Илья Калининский,111.9,,,,,,220,-225,,220,,,,,,,220,125,B,Raw,No,Open,28,1989-04-11
2,M,Oleg Khokhlov,Олег Хохлов,117.6,,,,,,-187.5,190,197.5,197.5,,,,,,,197.5,125,B,Raw,No,Open,36,1981-04-18
3,M,Pavel Gundorov,Павел Гундоров,120.6,,,,,,160,-175,-175,160,,,,,,,160,125,B,Raw,No,Open,39,1977-08-02
1,M,Anatoliy Logunov,Анатолий Логунов,112.4,,,,,,150,155,-160,155,,,,,,,155,125,B,Raw,No,Masters 60-64,64,1953-01-08
1,M,Aleksey Shemetov,Алексей Шеметов,98.3,,,,,,-177.5,177.5,187.5,187.5,,,,,,,187.5,100,B,Single-ply,Yes,Open,37,1979-11-26
1,M,Nikolay Andreev,Николай Андреев,100.5,,,,,,190,-200,205,205,,,,,,,205,110,B,Single-ply,No,Open,27,1990-04-20
1,M,Nikolay Glazev,Николай Глазьев,117,,,,,,-250,257.5,265,265,,,,,,,265,125,B,Single-ply,No,Open,33,1983-10-29
1,M,Sergey Koryakin,Сергей Корякин,81,,,,,,,,,,,250,265,270,270,,270,82.5,D,Raw,No,Open,40,1976-07-01
1,M,Sergey Koryakin,Сергей Корякин,81,,,,,,,,,,,250,265,270,270,,270,82.5,D,Raw,No,Masters 40-44,40,1976-07-01
1,F,Olga Sondor,Ольга Сондор,51.5,,,,,,,,,,,105,-112.5,-112.5,105,,105,52,D,Raw,Yes,Open,24,1992-07-09
1,F,Zara Arutyunyan,Зара Арутюнян,54.7,,,,,,,,,,,90,100,105,105,,105,56,D,Raw,Yes,Open,25,1991-05-30
1,F,Anastasiya Nefedova,Анастасия Нефедова,58,,,,,,,,,,,90,-100,-100,90,,90,60,D,Raw,Yes,Juniors 20-23,22,1994-11-10
1,F,Svetlana Myakisheva,Светлана Мякишева,59.4,,,,,,,,,,,90,95,100,100,,100,60,D,Raw,Yes,Open,32,1984-09-07
1,F,Aleksandra Ryzhova,Александра Рыжова,61.4,,,,,,,,,,,85,90,97.5,97.5,,97.5,67.5,D,Raw,Yes,Teen 16-17,16,2000-09-21
1,F,Yuliya Trofimova,Юлия Трофимова,67.5,,,,,,,,,,,75,-77.5,77.5,77.5,,77.5,67.5,D,Raw,Yes,Teen 18-19,18,1998-10-29
1,F,Evgeniya Vasileva,Евгения Васильева,64.1,,,,,,,,,,,130,-140,-140,130,,130,67.5,D,Raw,Yes,Open,39,1977-12-29
2,F,Ekaterina Sheveleva,Екатерина Шевелева,67.5,,,,,,,,,,,105,112.5,120,120,,120,67.5,D,Raw,Yes,Open,28,1988-09-05
1,M,Evgeniy Senko,Евгений Сенько,54.9,,,,,,,,,,,165,-170,-170,165,,165,56,D,Raw,Yes,Open,28,1989-03-19
1,M,Denis Bukaranov,Денис Букаранов,67.5,,,,,,,,,,,170,180,-195,180,,180,67.5,D,Raw,Yes,Teen 13-15,15,2001-07-08
1,M,Aleksandr Kudryashov,Александр Кудряшов,64.3,,,,,,,,,,,150,160,170,170,,170,67.5,D,Raw,Yes,Teen 16-17,16,2001-02-16
1,M,Kirill Bobryshev,Кирилл Бобрышев,67.2,,,,,,,,,,,185,195,-200,195,,195,67.5,D,Raw,Yes,Juniors 20-23,22,1995-05-06
1,M,Evgeniy Bayborodin,Евгений Байбородин,65.5,,,,,,,,,,,170,180,185,185,,185,67.5,D,Raw,Yes,Open,30,1987-01-23
2,M,Vasiliy Ostapenko,Василий Остапенко,66.7,,,,,,,,,,,170,185,-195,185,,185,67.5,D,Raw,Yes,Open,33,1983-07-30
1,M,Yan Lennok,Ян Леннок,73.8,,,,,,,,,,,200,207.5,212.5,212.5,,212.5,75,D,Raw,Yes,Teen 13-15,15,2001-06-08
1,M,Nikita Nogotkov,Никита Ноготков,75,,,,,,,,,,,200,207.5,210,210,,210,75,D,Raw,Yes,Teen 16-17,16,2001-03-08
2,M,Pavel Perevedentsev,Павел Переведенцев,69.8,,,,,,,,,,,140,150,160,160,,160,75,D,Raw,Yes,Teen 16-17,17,2000-02-07
1,M,Sergey Efimtsov,Сергей Ефимцов,74.3,,,,,,,,,,,210,220,-230,220,,220,75,D,Raw,Yes,Open,25,1991-08-23
2,M,Andrey Kochin,Андрей Кочин,74.6,,,,,,,,,,,200,207.5,-222.5,207.5,,207.5,75,D,Raw,Yes,Open,30,1986-07-14
3,M,Nikita Konev,Никита Конев,73.8,,,,,,,,,,,190,200,-207.5,200,,200,75,D,Raw,Yes,Open,25,1992-01-17
1,M,Igor Pashkov,Игорь Пашков,81.1,,,,,,,,,,,-230,230,235,235,,235,82.5,D,Raw,Yes,Open,30,1986-06-10
2,M,Aleksandr Morozov,Александр Морозов,77.7,,,,,,,,,,,217.5,227.5,232.5,232.5,,232.5,82.5,D,Raw,Yes,Open,33,1983-07-30
3,M,Yuriy Ryabinin,Юрий Рябинин,81.2,,,,,,,,,,,190,200,-207.5,200,,200,82.5,D,Raw,Yes,Open,36,1980-08-03
4,M,Ivan Korolev,Иван Королев,79.8,,,,,,,,,,,-190,190,-200,190,,190,82.5,D,Raw,Yes,Open,34,1982-07-01
1,M,Aleksandr Kazimirskiy,Александр Казимирский,89.1,,,,,,,,,,,235,-262.5,-262.5,235,,235,90,D,Raw,Yes,Open,21,1995-12-22
2,M,Aleksey Levoshkin,Алексей Левошкин,88.1,,,,,,,,,,,210,230,-240,230,,230,90,D,Raw,Yes,Open,29,1987-11-30
3,M,Dmitriy Isakovskiy,Дмитрий Исаковский,83.7,,,,,,,,,,,202.5,215,220,220,,220,90,D,Raw,Yes,Open,26,1991-04-23
1,M,David Sichinava,Давид Сичинава,106.9,,,,,,,,,,,235,247.5,,247.5,,247.5,110,D,Raw,Yes,Open,25,1991-09-18
1,M,Yuriy Kobelev,Юрий Кобелев,58.7,,,,,,,,,,,190,200,-210,200,,200,60,D,Raw,No,Juniors 20-23,22,1994-12-16
1,M,Artem Kotov,Артем Котов,72.5,,,,,,,,,,,210,230,240,240,,240,75,D,Raw,No,Open,28,1989-01-08
1,M,Vyacheslav Baryshev,Вячеслав Барышев,82,,,,,,,,,,,180,200,-210,200,,200,82.5,D,Raw,No,Masters 55-59,55,1961-09-14
1,M,Aleksandr Rzhanovskiy,Александр Ржановский,88.1,,,,,,,,,,,220,235,-250,235,,235,90,D,Raw,No,Juniors 20-23,23,1994-03-30
1,M,Nikolay Durapov,Николай Дурапов,89,,,,,,,,,,,290,300,-305,300,,300,90,D,Raw,No,Open,36,1980-07-17
1,M,Sergey Zarubin,Сергей Зарубин,83.2,,,,,,,,,,,170,180,190,190,,190,90,D,Raw,No,Masters 55-59,57,1959-09-13
1,M,Ruslan Kuznetsov,Руслан Кузнецов,92.3,,,,,,,,,,,280,-290,,280,,280,100,D,Raw,No,Juniors 20-23,22,1995-01-26
1,M,Aleksey Sokolov,Алексей Соколов,96.7,,,,,,,,,,,270,290,310,310,,310,100,D,Raw,No,Open,32,1984-10-10
2,M,Aleksey Yakushevich,Алексей Якушевич,99.2,,,,,,,,,,,280,300,307.5,307.5,,307.5,100,D,Raw,No,Open,25,1991-07-02
3,M,Ruslan Kuznetsov,Руслан Кузнецов,92.3,,,,,,,,,,,280,-290,,280,,280,100,D,Raw,No,Open,22,1995-01-26
4,M,Aleksandr Kozin,Александр Козин,93.9,,,,,,,,,,,170,197.5,-200,197.5,,197.5,100,D,Raw,No,Open,32,1984-11-14
1,M,Anton Filippov,Антон Филиппов,136.9,,,,,,,,,,,300,310,320,320,,320,140,D,Raw,No,Open,30,1986-08-12
1,M,Natalya Gorislova,Наталья Горислова,66.9,,,,,,85,90,95,95,,,,,,,95,67.5,B,Multi-ply,Yes,Masters 45-49,45,1972-03-03
1,M,Aleksey Shchigol,Алексей Щиголь,85.9,,,,,,190,-200,-200,190,,,,,,,190,90,B,Multi-ply,Yes,Open,31,1985-11-05
1,M,Aleksandr Bazanov,Александр Базанов,99.8,,,,,,-200,-200,200,200,230,,,,,,200,100,B,Multi-ply,Yes,Juniors 20-23,20,1997-05-02
1,M,Sergey Stepichev,Сергей Степичев,86.7,,,,,,210,220,230,230,,,,,,,230,90,B,Multi-ply,No,Open,39,1977-07-06
1,M,Andrey Chebykin,Андрей Чебыкин,102.5,,,,,,280,-300,-300,280,,,,,,,280,110,B,Multi-ply,No,Open,41,1976-03-26
1,M,Andrey Chebykin,Андрей Чебыкин,102.5,,,,,,280,-300,-300,280,,,,,,,280,110,B,Multi-ply,No,Masters 40-44,41,1976-03-26
1,M,Vladimir Rastorguev,Владимир Расторгуев,67.3,,,,,,-100,100,105,105,,,,,,,105,67.5,B,Raw,No,Open,27,1989-05-29
